Date,Open,High,Low,Close,Adj Close,Volume
2021-06-01,141.66000366210938,142.85000610351562,139.19000244140625,139.36000061035156,138.9972686767578,630000
2021-06-02,139.52000427246094,139.52000427246094,137.82000732421875,138.33999633789062,137.97991943359375,692000
2021-06-03,137.4600067138672,138.49000549316406,136.97999572753906,137.94000244140625,137.58096313476562,718400
2021-06-04,138.94000244140625,139.41000366210938,138.1699981689453,138.8300018310547,138.46864318847656,432400
2021-06-07,139.19000244140625,139.19000244140625,137.69000244140625,138.0,137.64080810546875,388600
2021-06-08,138.1699981689453,139.64999389648438,137.2899932861328,139.0,138.63819885253906,574700
2021-06-09,138.8699951171875,139.35000610351562,138.05999755859375,138.08999633789062,137.73056030273438,570100
2021-06-10,138.8300018310547,139.6300048828125,137.44000244140625,138.66000366210938,138.29908752441406,791900
2021-06-11,139.2100067138672,139.6199951171875,137.88999938964844,138.6999969482422,138.33897399902344,601600
2021-06-14,138.72000122070312,138.72000122070312,137.05999755859375,138.30999755859375,137.9499969482422,609800
2021-06-15,138.05999755859375,138.75999450683594,136.9600067138672,138.5,138.5,724900
2021-06-16,138.72999572753906,139.36000061035156,137.8000030517578,139.1300048828125,139.1300048828125,878300
2021-06-17,138.82000732421875,139.2100067138672,134.86000061035156,136.55999755859375,136.55999755859375,662500
2021-06-18,134.67999267578125,135.6699981689453,133.8000030517578,134.64999389648438,134.64999389648438,885700
2021-06-21,136.0399932861328,138.0800018310547,135.97000122070312,137.77000427246094,137.77000427246094,1017300
2021-06-22,138.16000366210938,139.05999755859375,137.02999877929688,138.69000244140625,138.69000244140625,589600
2021-06-23,139.0399932861328,139.25,137.6999969482422,138.14999389648438,138.14999389648438,910500
2021-06-24,139.25999450683594,139.25999450683594,137.22999572753906,138.72000122070312,138.72000122070312,621500
2021-06-25,139.25,140.22000122070312,138.1999969482422,138.85000610351562,138.85000610351562,785200
2021-06-28,139.30999755859375,139.77000427246094,138.08999633789062,139.3300018310547,139.3300018310547,401300
2021-06-29,140.07000732421875,140.97000122070312,139.10000610351562,139.19000244140625,139.19000244140625,395200
2021-06-30,138.6300048828125,139.5800018310547,138.6300048828125,139.3000030517578,139.3000030517578,509800
2021-07-01,140.17999267578125,140.9199981689453,139.77999877929688,140.2100067138672,140.2100067138672,430100
2021-07-02,140.13999938964844,140.72999572753906,139.33999633789062,140.0399932861328,140.0399932861328,362400
2021-07-06,139.44000244140625,140.52999877929688,136.67999267578125,138.55999755859375,138.55999755859375,379700
2021-07-07,137.77999877929688,140.1199951171875,137.77999877929688,140.02000427246094,140.02000427246094,516500
2021-07-08,138.22000122070312,138.66000366210938,136.7899932861328,137.52000427246094,137.52000427246094,441000
2021-07-09,139.49000549316406,140.05999755859375,138.08999633789062,138.27000427246094,138.27000427246094,853400
2021-07-12,137.9600067138672,138.61000061035156,137.27999877929688,138.1199951171875,138.1199951171875,506900
2021-07-13,137.6199951171875,137.9499969482422,134.02000427246094,134.0399932861328,134.0399932861328,780200
2021-07-14,134.5399932861328,136.55999755859375,134.02000427246094,135.8699951171875,135.8699951171875,758500
2021-07-15,135.10000610351562,137.52000427246094,135.02999877929688,137.32000732421875,137.32000732421875,1088400
2021-07-16,138.19000244140625,138.91000366210938,137.91000366210938,138.5,138.5,1083200
2021-07-19,136.0,136.92999267578125,134.7100067138672,135.91000366210938,135.91000366210938,1012800
2021-07-20,136.66000366210938,142.25,136.47000122070312,141.35000610351562,141.35000610351562,1070500
2021-07-21,140.5,141.33999633789062,137.9499969482422,140.47000122070312,140.47000122070312,1212500
