Date,Open,High,Low,Close,Adj Close,Volume
2021-06-01,171.57000732421875,173.47999572753906,170.00999450683594,171.49000549316406,170.6709442138672,2965300
2021-06-02,172.67999267578125,173.41000366210938,170.9199981689453,171.38999938964844,170.57142639160156,1836600
2021-06-03,170.61000061035156,173.6699981689453,170.27999877929688,173.39999389648438,172.57180786132812,1895700
2021-06-04,173.32000732421875,173.41000366210938,171.8300018310547,173.00999450683594,172.18368530273438,1421000
2021-06-07,173.00999450683594,173.33999633789062,169.36000061035156,169.4499969482422,168.64068603515625,2486200
2021-06-08,168.63999938964844,170.1300048828125,168.19000244140625,169.82000732421875,169.00892639160156,3064800
2021-06-09,169.3000030517578,169.8000030517578,167.14999389648438,167.3000030517578,166.50096130371094,1617100
2021-06-10,168.63999938964844,168.85000610351562,165.3000030517578,165.4600067138672,164.6697540283203,1866800
2021-06-11,165.9499969482422,167.14999389648438,165.75999450683594,167.08999633789062,166.29196166992188,1515700
2021-06-14,166.75999450683594,167.61000061035156,165.3800048828125,166.4600067138672,165.66497802734375,1733200
2021-06-15,167.27999877929688,168.82000732421875,166.3800048828125,168.10000610351562,167.29713439941406,1549500
2021-06-16,167.77999877929688,169.27999877929688,167.00999450683594,167.5,166.6999969482422,2023000
2021-06-17,167.25,167.42999267578125,160.22000122070312,160.27000427246094,160.27000427246094,2487100
2021-06-18,157.6699981689453,159.41000366210938,155.77999877929688,156.00999450683594,156.00999450683594,4136700
2021-06-21,157.13999938964844,159.47999572753906,156.97999572753906,159.02999877929688,159.02999877929688,2071900
2021-06-22,158.9600067138672,159.94000244140625,157.69000244140625,159.32000732421875,159.32000732421875,1214000
2021-06-23,159.52000427246094,160.25,158.91000366210938,159.49000549316406,159.49000549316406,1077300
2021-06-24,160.0399932861328,161.6699981689453,159.02000427246094,161.1999969482422,161.1999969482422,1243400
2021-06-25,161.57000732421875,162.74000549316406,161.22000122070312,162.2899932861328,162.2899932861328,1770200
2021-06-28,162.3000030517578,162.3000030517578,158.33999633789062,158.9499969482422,158.9499969482422,1361700
2021-06-29,159.49000549316406,160.86000061035156,157.60000610351562,158.39999389648438,158.39999389648438,1156900
2021-06-30,158.60000610351562,159.25,157.74000549316406,158.94000244140625,158.94000244140625,1084300
2021-07-01,159.86000061035156,161.89999389648438,159.0,161.82000732421875,161.82000732421875,1055100
2021-07-02,161.47000122070312,161.9600067138672,160.47999572753906,161.3699951171875,161.3699951171875,1734000
2021-07-06,160.74000549316406,161.6999969482422,158.69000244140625,161.08999633789062,161.08999633789062,1587300
2021-07-07,160.0,162.39999389648438,159.88999938964844,161.97000122070312,161.97000122070312,916000
2021-07-08,159.67999267578125,160.19000244140625,157.19000244140625,157.9499969482422,157.9499969482422,1351200
2021-07-09,160.85000610351562,162.89999389648438,159.49000549316406,162.72999572753906,162.72999572753906,1569200
2021-07-12,162.1300048828125,164.94000244140625,161.77000427246094,164.61000061035156,164.61000061035156,1539400
2021-07-13,163.80999755859375,164.6999969482422,162.9600067138672,163.02000427246094,163.02000427246094,1305000
2021-07-14,163.6199951171875,164.9499969482422,163.19000244140625,164.30999755859375,164.30999755859375,1009200
2021-07-15,162.5800018310547,166.2899932861328,162.30999755859375,166.16000366210938,166.16000366210938,1098600
2021-07-16,166.58999633789062,167.5,165.27999877929688,166.75,166.75,1129000
2021-07-19,163.97000122070312,164.99000549316406,159.47000122070312,160.7899932861328,160.7899932861328,1766200
2021-07-20,161.6999969482422,168.82000732421875,161.6999969482422,167.6699981689453,167.6699981689453,3033600
2021-07-21,169.02000427246094,171.44000244140625,168.6300048828125,169.4199981689453,169.4199981689453,1707700
