Date,Open,High,Low,Close,Adj Close,Volume
2021-06-01,112.45999908447266,113.12999725341797,110.08000183105469,110.62999725341797,110.62999725341797,320600
2021-06-02,110.62000274658203,112.95999908447266,109.87999725341797,112.87999725341797,112.87999725341797,446300
2021-06-03,113.12000274658203,113.12000274658203,111.63999938964844,112.19999694824219,112.19999694824219,547200
2021-06-04,112.86000061035156,112.86000061035156,111.38999938964844,111.94999694824219,111.94999694824219,519800
2021-06-07,111.66999816894531,112.16000366210938,111.11000061035156,112.0,112.0,526200
2021-06-08,112.0,115.33000183105469,111.23999786376953,112.44999694824219,112.44999694824219,873400
2021-06-09,112.11000061035156,114.30000305175781,111.83999633789062,114.11000061035156,114.11000061035156,552500
2021-06-10,113.83000183105469,113.8499984741211,113.01000213623047,113.41999816894531,113.41999816894531,423200
2021-06-11,113.08999633789062,114.44000244140625,112.58999633789062,113.91999816894531,113.91999816894531,412100
2021-06-14,113.7699966430664,114.79000091552734,113.7699966430664,114.76000213623047,114.76000213623047,390100
2021-06-15,115.0,116.0,114.22000122070312,114.56999969482422,114.56999969482422,472700
2021-06-16,115.23999786376953,116.80000305175781,114.16000366210938,116.33000183105469,116.33000183105469,536600
2021-06-17,115.62999725341797,117.47000122070312,115.62999725341797,117.37999725341797,117.37999725341797,736400
2021-06-18,116.2300033569336,116.7300033569336,113.41999816894531,113.41999816894531,113.41999816894531,1031800
2021-06-21,113.66999816894531,120.0,113.5199966430664,118.04000091552734,118.04000091552734,1065500
2021-06-22,118.80000305175781,120.0,117.33000183105469,119.98999786376953,119.98999786376953,495100
2021-06-23,119.33999633789062,119.88999938964844,118.6500015258789,118.69000244140625,118.69000244140625,672800
2021-06-24,119.38999938964844,121.5,118.87000274658203,121.12999725341797,121.12999725341797,876700
2021-06-25,121.0999984741211,121.7699966430664,119.48999786376953,121.7699966430664,121.7699966430664,1426600
2021-06-28,122.2699966430664,122.2699966430664,119.33000183105469,119.4000015258789,119.4000015258789,410000
2021-06-29,119.02999877929688,120.94999694824219,118.2300033569336,119.97000122070312,119.97000122070312,391000
2021-06-30,120.30000305175781,120.30000305175781,118.87999725341797,119.05000305175781,119.05000305175781,525700
2021-07-01,119.81999969482422,120.55999755859375,118.37000274658203,118.5,118.5,425600
2021-07-02,120.9000015258789,120.9000015258789,117.23999786376953,118.0,118.0,495100
2021-07-06,117.62999725341797,118.69999694824219,114.54000091552734,117.37999725341797,117.37999725341797,734600
2021-07-07,117.2300033569336,118.04000091552734,115.93000030517578,117.22000122070312,117.22000122070312,472500
2021-07-08,115.94000244140625,116.9800033569336,115.27999877929688,116.23999786376953,116.23999786376953,547900
2021-07-09,117.0,118.86000061035156,116.29000091552734,118.79000091552734,118.79000091552734,451500
2021-07-12,118.91999816894531,119.31999969482422,116.9000015258789,118.23999786376953,118.23999786376953,362500
2021-07-13,118.1500015258789,118.1500015258789,116.2699966430664,116.36000061035156,116.36000061035156,338600
2021-07-14,116.36000061035156,117.05000305175781,115.88999938964844,116.20999908447266,116.20999908447266,327100
2021-07-15,115.4000015258789,117.13999938964844,115.4000015258789,117.13999938964844,117.13999938964844,495300
2021-07-16,117.08000183105469,117.7699966430664,115.54000091552734,116.62999725341797,116.62999725341797,486100
2021-07-19,114.66999816894531,116.41999816894531,114.27999877929688,115.55999755859375,115.55999755859375,526300
2021-07-20,114.80000305175781,116.94000244140625,114.44999694824219,115.55999755859375,115.55999755859375,556900
2021-07-21,115.47000122070312,118.45999908447266,115.47000122070312,118.30000305175781,118.30000305175781,487400
