Date,Open,High,Low,Close,Adj Close,Volume
2021-06-01,78.4000015258789,78.66000366210938,77.52999877929688,77.9000015258789,77.68106842041016,1754400
2021-06-02,77.80000305175781,78.5199966430664,77.69000244140625,78.05000305175781,77.83065032958984,2776800
2021-06-03,77.87999725341797,80.33000183105469,77.83999633789062,80.26000213623047,80.03443908691406,3772200
2021-06-04,80.3499984741211,81.41999816894531,79.98999786376953,80.3499984741211,80.12418365478516,3125500
2021-06-07,80.44000244140625,80.72000122070312,79.30000305175781,79.52999877929688,79.30648803710938,3090500
2021-06-08,79.52999877929688,80.30000305175781,79.25,79.48999786376953,79.26659393310547,1930200
2021-06-09,79.63999938964844,80.31999969482422,79.63999938964844,80.02999877929688,79.80508422851562,2187600
2021-06-10,80.18000030517578,81.18000030517578,79.83000183105469,81.08000183105469,80.85213470458984,2549200
2021-06-11,81.08000183105469,81.56999969482422,80.55000305175781,81.2699966430664,81.04159545898438,3439600
2021-06-14,81.0,81.08999633789062,79.66000366210938,80.69000244140625,80.46322631835938,2691000
2021-06-15,80.94000244140625,81.12999725341797,80.0999984741211,80.23999786376953,80.01448822021484,2002800
2021-06-16,80.23999786376953,80.36000061035156,79.05000305175781,79.30000305175781,79.07713317871094,2463100
2021-06-17,79.2300033569336,79.41000366210938,78.69000244140625,78.93000030517578,78.70817565917969,3526000
2021-06-18,78.66999816894531,79.37999725341797,78.45999908447266,78.80000305175781,78.57854461669922,4825500
2021-06-21,78.79000091552734,79.58000183105469,78.30999755859375,79.4800033569336,79.25662994384766,1871500
2021-06-22,79.55999755859375,79.63999938964844,78.83000183105469,79.06999969482422,78.8477783203125,1485700
2021-06-23,78.95999908447266,78.95999908447266,77.77999877929688,78.13999938964844,77.92039489746094,1608100
2021-06-24,78.22000122070312,78.83000183105469,78.06999969482422,78.27999877929688,78.05999755859375,1474000
2021-06-25,78.02999877929688,79.26000213623047,77.91000366210938,78.44999694824219,78.44999694824219,10277700
2021-06-28,78.51000213623047,79.0199966430664,78.30000305175781,78.5,78.5,2676900
2021-06-29,78.66000366210938,78.98999786376953,77.94999694824219,78.36000061035156,78.36000061035156,3660700
2021-06-30,78.5,78.75,77.66999816894531,78.16000366210938,78.16000366210938,1666800
2021-07-01,78.04000091552734,78.73999786376953,78.04000091552734,78.48999786376953,78.48999786376953,4044600
2021-07-02,78.61000061035156,79.58000183105469,78.45999908447266,79.45999908447266,79.45999908447266,4650400
2021-07-06,79.63999938964844,79.94000244140625,78.73999786376953,79.55999755859375,79.55999755859375,2755200
2021-07-07,80.08000183105469,80.31999969482422,79.63999938964844,80.22000122070312,80.22000122070312,3278600
2021-07-08,79.77999877929688,80.38999938964844,79.37000274658203,79.73999786376953,79.73999786376953,2112100
2021-07-09,79.4800033569336,80.04000091552734,79.43000030517578,79.56999969482422,79.56999969482422,2100300
2021-07-12,79.5999984741211,80.25,79.43000030517578,80.01000213623047,80.01000213623047,1629300
2021-07-13,80.08999633789062,80.41000366210938,79.58999633789062,79.72000122070312,79.72000122070312,1481800
2021-07-14,79.86000061035156,79.86000061035156,79.19999694824219,79.62000274658203,79.62000274658203,1292700
2021-07-15,79.41000366210938,79.70999908447266,78.9800033569336,79.5,79.5,1491300
2021-07-16,79.69000244140625,79.69000244140625,76.91999816894531,77.45999908447266,77.45999908447266,3932600
2021-07-19,77.61000061035156,77.87000274658203,76.06999969482422,76.72000122070312,76.72000122070312,2954700
2021-07-20,76.88999938964844,78.70999908447266,76.8499984741211,77.80999755859375,77.80999755859375,2531300
2021-07-21,77.72000122070312,78.06999969482422,77.1500015258789,77.69000244140625,77.69000244140625,1554600
