Date,Open,High,Low,Close,Adj Close,Volume
2021-06-01,86.04000091552734,86.81999969482422,84.38999938964844,84.87000274658203,84.87000274658203,1121900
2021-06-02,84.9800033569336,85.41999816894531,84.61000061035156,85.0999984741211,85.0999984741211,1084800
2021-06-03,85.20999908447266,86.33000183105469,85.12000274658203,86.20999908447266,86.20999908447266,1656300
2021-06-04,86.27999877929688,86.62999725341797,85.72000122070312,86.47000122070312,86.47000122070312,1661600
2021-06-07,86.47000122070312,86.61000061035156,85.36000061035156,86.0199966430664,86.0199966430664,1376400
2021-06-08,86.08999633789062,86.47000122070312,84.9800033569336,85.12999725341797,85.12999725341797,1478200
2021-06-09,85.4000015258789,86.0,84.41000366210938,84.54000091552734,84.54000091552734,1144900
2021-06-10,84.43000030517578,85.33999633789062,84.43000030517578,84.7300033569336,84.7300033569336,2284200
2021-06-11,84.66999816894531,84.7300033569336,84.05999755859375,84.69000244140625,84.69000244140625,1242700
2021-06-14,84.9800033569336,85.08000183105469,83.94999694824219,84.54000091552734,84.54000091552734,1395100
2021-06-15,84.83999633789062,85.6500015258789,84.52999877929688,85.19000244140625,85.19000244140625,1735500
2021-06-16,85.75,86.0,83.93000030517578,84.23999786376953,84.23999786376953,1369000
2021-06-17,83.9800033569336,85.55000305175781,83.56999969482422,85.45999908447266,85.45999908447266,1479500
2021-06-18,84.94000244140625,85.05999755859375,83.5999984741211,83.68000030517578,83.68000030517578,2756100
2021-06-21,83.83999633789062,84.27999877929688,83.66000366210938,83.94999694824219,83.94999694824219,1179400
2021-06-22,83.9800033569336,84.47000122070312,83.73999786376953,83.94000244140625,83.94000244140625,1247600
2021-06-23,84.02999877929688,84.02999877929688,83.02999877929688,83.05000305175781,83.05000305175781,798700
2021-06-24,82.75,83.30999755859375,82.4000015258789,83.18000030517578,83.18000030517578,1116500
2021-06-25,83.16000366210938,84.69999694824219,82.7300033569336,84.2300033569336,84.2300033569336,6334300
2021-06-28,84.5,85.5,84.2300033569336,85.05999755859375,85.05999755859375,1191900
2021-06-29,85.44000244140625,85.66000366210938,84.55000305175781,84.94000244140625,84.94000244140625,946600
2021-06-30,85.08999633789062,85.9000015258789,85.05000305175781,85.22000122070312,85.22000122070312,1154100
2021-07-01,85.62000274658203,85.86000061035156,84.7300033569336,84.9000015258789,84.9000015258789,975500
2021-07-02,85.0999984741211,85.73999786376953,85.01000213623047,85.2699966430664,85.2699966430664,810100
2021-07-06,85.05000305175781,85.91999816894531,84.94999694824219,85.5199966430664,85.5199966430664,1565500
2021-07-07,85.72000122070312,87.80999755859375,85.5,86.62999725341797,86.62999725341797,1289800
2021-07-08,86.7699966430664,87.69000244140625,85.8499984741211,86.51000213623047,86.51000213623047,1048100
2021-07-09,86.62000274658203,87.16999816894531,86.30000305175781,86.9800033569336,86.9800033569336,1905000
2021-07-12,86.91999816894531,86.9800033569336,86.19999694824219,86.5199966430664,86.5199966430664,1007600
2021-07-13,86.12999725341797,86.76000213623047,85.7699966430664,86.02999877929688,86.02999877929688,1200800
2021-07-14,85.2300033569336,86.11000061035156,84.81999969482422,85.95999908447266,85.95999908447266,1400700
2021-07-15,86.05000305175781,86.45999908447266,85.05000305175781,86.45999908447266,86.45999908447266,874700
2021-07-16,86.80999755859375,87.62999725341797,86.44999694824219,87.33000183105469,87.33000183105469,1061000
2021-07-19,87.16999816894531,88.91000366210938,86.58000183105469,87.51000213623047,87.51000213623047,1599200
2021-07-20,87.48999786376953,88.69000244140625,86.95999908447266,86.98999786376953,86.98999786376953,1126900
2021-07-21,86.72000122070312,86.95999908447266,84.91999816894531,84.94000244140625,84.94000244140625,1925500
