Date,Open,High,Low,Close,Adj Close,Volume
2021-06-01,57.08000183105469,58.47999954223633,57.04999923706055,58.27000045776367,57.82786178588867,9943600
2021-06-02,58.65999984741211,59.40999984741211,57.7400016784668,58.9900016784668,58.542396545410156,6103300
2021-06-03,58.720001220703125,60.0,58.560001373291016,59.470001220703125,59.01875686645508,8280800
2021-06-04,59.81999969482422,60.130001068115234,58.900001525878906,59.849998474121094,59.395870208740234,6504800
2021-06-07,59.810001373291016,60.529998779296875,59.59000015258789,59.810001373291016,59.35617446899414,5405100
2021-06-08,59.43000030517578,60.619998931884766,58.630001068115234,60.470001220703125,60.011165618896484,7345200
2021-06-09,60.630001068115234,60.880001068115234,59.58000183105469,59.68000030517578,59.2271614074707,7026300
2021-06-10,61.0099983215332,61.279998779296875,59.279998779296875,60.16999816894531,59.71343994140625,9396000
2021-06-11,60.5,60.93000030517578,59.79999923706055,59.970001220703125,59.51496124267578,8117000
2021-06-14,60.650001525878906,61.06999969482422,59.849998474121094,60.310001373291016,59.85238265991211,7744300
2021-06-15,60.70000076293945,61.560001373291016,60.470001220703125,61.16999816894531,60.70585250854492,7835700
2021-06-16,61.09000015258789,61.779998779296875,60.560001373291016,61.130001068115234,60.666160583496094,9745800
2021-06-17,60.900001525878906,61.56999969482422,58.54999923706055,59.0099983215332,58.5622444152832,13667200
2021-06-18,57.880001068115234,59.209999084472656,57.47999954223633,57.529998779296875,57.09347152709961,18583800
2021-06-21,58.22999954223633,60.529998779296875,58.209999084472656,60.45000076293945,59.99131774902344,8234300
2021-06-22,60.150001525878906,61.119998931884766,59.63999938964844,60.790000915527344,60.328739166259766,6745100
2021-06-23,61.099998474121094,62.349998474121094,60.75,60.7599983215332,60.29896545410156,8184000
2021-06-24,60.970001220703125,61.5099983215332,60.31999969482422,61.38999938964844,60.92418670654297,6424400
2021-06-25,61.70000076293945,61.75,61.02000045776367,61.310001373291016,60.84479522705078,8099200
2021-06-28,61.119998931884766,61.16999816894531,59.369998931884766,59.59000015258789,59.13784408569336,7647300
2021-06-29,60.099998474121094,60.20000076293945,58.84000015258789,59.04999923706055,58.6019401550293,6437000
2021-06-30,60.47999954223633,60.95000076293945,59.810001373291016,60.900001525878906,60.437904357910156,9309600
2021-07-01,62.689998626708984,63.56999969482422,62.349998474121094,62.880001068115234,62.40288162231445,11637200
2021-07-02,62.459999084472656,63.16999816894531,61.59000015258789,62.75,62.27386474609375,7635000
2021-07-06,62.779998779296875,62.88999938964844,60.209999084472656,60.279998779296875,59.82260513305664,11699400
2021-07-07,60.0,60.779998779296875,58.630001068115234,59.0099983215332,58.5622444152832,8239600
2021-07-08,58.25,59.63999938964844,57.9900016784668,59.209999084472656,58.76072692871094,10551500
2021-07-09,59.75,60.459999084472656,59.34000015258789,60.130001068115234,59.67374801635742,6973300
2021-07-12,58.90999984741211,60.439998626708984,58.72999954223633,59.79999923706055,59.346248626708984,6063100
2021-07-13,59.4900016784668,59.9900016784668,58.79999923706055,59.459999084472656,59.008827209472656,6510400
2021-07-14,59.88999938964844,60.61000061035156,57.34000015258789,57.66999816894531,57.2324104309082,8489600
2021-07-15,57.0,58.220001220703125,56.790000915527344,57.08000183105469,56.64689254760742,8723300
2021-07-16,57.70000076293945,57.900001525878906,55.310001373291016,55.5,55.07887649536133,8805300
2021-07-19,53.43000030517578,54.29999923706055,52.81999969482422,53.70000076293945,53.292537689208984,13342100
2021-07-20,53.5,55.25,53.279998779296875,54.470001220703125,54.05669403076172,9355900
2021-07-21,55.72999954223633,57.41999816894531,55.61000061035156,57.02000045776367,56.587345123291016,9371400
