Date,Open,High,Low,Close,Adj Close,Volume
2021-06-01,32.279998779296875,32.45000076293945,31.8799991607666,32.0,32.0,7727300
2021-06-02,32.290000915527344,32.56999969482422,31.360000610351562,32.150001525878906,32.150001525878906,8556600
2021-06-03,32.09000015258789,32.400001525878906,31.309999465942383,31.6299991607666,31.6299991607666,6681600
2021-06-04,31.75,31.899999618530273,31.170000076293945,31.549999237060547,31.549999237060547,5115400
2021-06-07,31.670000076293945,31.979999542236328,31.15999984741211,31.239999771118164,31.239999771118164,5046400
2021-06-08,31.219999313354492,31.309999465942383,29.940000534057617,30.040000915527344,30.040000915527344,12160200
2021-06-09,30.09000015258789,31.0,30.010000228881836,30.559999465942383,30.559999465942383,6625700
2021-06-10,30.670000076293945,30.850000381469727,29.969999313354492,30.139999389648438,30.139999389648438,7832700
2021-06-11,30.399999618530273,30.809999465942383,30.239999771118164,30.790000915527344,30.790000915527344,5280100
2021-06-14,30.959999084472656,31.479999542236328,30.65999984741211,30.81999969482422,30.81999969482422,5182600
2021-06-15,30.81999969482422,31.530000686645508,30.049999237060547,30.06999969482422,30.06999969482422,6912600
2021-06-16,30.020000457763672,30.59000015258789,29.540000915527344,30.459999084472656,30.459999084472656,7134200
2021-06-17,30.31999969482422,30.489999771118164,29.34000015258789,29.40999984741211,29.40999984741211,7729000
2021-06-18,29.260000228881836,29.5,28.889999389648438,29.079999923706055,29.079999923706055,10228800
2021-06-21,29.149999618530273,29.729999542236328,29.010000228881836,29.690000534057617,29.690000534057617,7984600
2021-06-22,29.690000534057617,29.700000762939453,29.020000457763672,29.489999771118164,29.489999771118164,6575500
2021-06-23,29.34000015258789,30.06999969482422,29.34000015258789,29.510000228881836,29.510000228881836,9244400
2021-06-24,29.639999389648438,30.360000610351562,29.459999084472656,30.31999969482422,30.31999969482422,6667600
2021-06-25,30.350000381469727,30.979999542236328,30.110000610351562,30.860000610351562,30.860000610351562,6852200
2021-06-28,30.959999084472656,31.309999465942383,30.329999923706055,30.56999969482422,30.56999969482422,5635500
2021-06-29,30.690000534057617,30.860000610351562,30.190000534057617,30.34000015258789,30.34000015258789,3951500
2021-06-30,30.40999984741211,30.790000915527344,29.940000534057617,30.68000030517578,30.68000030517578,5656500
2021-07-01,30.729999542236328,31.8799991607666,30.549999237060547,31.200000762939453,31.200000762939453,7054100
2021-07-02,31.030000686645508,31.670000076293945,30.799999237060547,31.139999389648438,31.139999389648438,4327900
2021-07-06,31.170000076293945,31.170000076293945,30.030000686645508,30.34000015258789,30.34000015258789,4471700
2021-07-07,30.18000030517578,30.350000381469727,29.459999084472656,29.559999465942383,29.559999465942383,5171300
2021-07-08,29.0,29.25,28.280000686645508,28.780000686645508,28.780000686645508,6978700
2021-07-09,29.200000762939453,29.479999542236328,28.8700008392334,29.299999237060547,29.299999237060547,4001200
2021-07-12,29.229999542236328,29.719999313354492,28.860000610351562,29.649999618530273,29.649999618530273,3267300
2021-07-13,29.43000030517578,29.729999542236328,28.950000762939453,29.100000381469727,29.100000381469727,6415800
2021-07-14,29.209999084472656,29.329999923706055,28.549999237060547,28.739999771118164,28.739999771118164,5500000
2021-07-15,28.600000381469727,29.15999984741211,28.34000015258789,28.459999084472656,28.459999084472656,5218700
2021-07-16,28.540000915527344,29.079999923706055,28.049999237060547,28.18000030517578,28.18000030517578,6281000
2021-07-19,27.770000457763672,28.209999084472656,27.079999923706055,27.81999969482422,27.81999969482422,7095500
2021-07-20,27.8799991607666,28.219999313354492,27.520000457763672,28.1299991607666,28.1299991607666,3531900
2021-07-21,28.209999084472656,29.049999237060547,28.209999084472656,28.790000915527344,28.790000915527344,4030400
