Date,Open,High,Low,Close,Adj Close,Volume
2021-06-01,430.3299865722656,430.94000244140625,422.29998779296875,423.0,422.1221618652344,434800
2021-06-02,423.6199951171875,429.30999755859375,422.04998779296875,426.20001220703125,425.3155517578125,552000
2021-06-03,426.239990234375,428.989990234375,424.19000244140625,425.1199951171875,424.2377624511719,418000
2021-06-04,426.25,431.1600036621094,425.4599914550781,431.1400146484375,430.24530029296875,516400
2021-06-07,432.0799865722656,438.4200134277344,430.2900085449219,437.9200134277344,437.01123046875,519300
2021-06-08,439.989990234375,452.9700012207031,439.260009765625,443.3599853515625,442.4399108886719,684500
2021-06-09,442.8599853515625,446.8800048828125,442.3999938964844,442.7099914550781,441.791259765625,331600
2021-06-10,442.92999267578125,449.94000244140625,442.92999267578125,448.42999267578125,447.4993896484375,446100
2021-06-11,447.94000244140625,453.80999755859375,447.94000244140625,452.9599914550781,452.0199890136719,459100
2021-06-14,450.5799865722656,451.92999267578125,445.8900146484375,448.1600036621094,448.1600036621094,473000
2021-06-15,450.1499938964844,450.4100036621094,444.4100036621094,445.760009765625,445.760009765625,404800
2021-06-16,447.0199890136719,449.07000732421875,445.3800048828125,447.5899963378906,447.5899963378906,626400
2021-06-17,448.8900146484375,462.2300109863281,448.8900146484375,457.20001220703125,457.20001220703125,595400
2021-06-18,455.9800109863281,462.1000061035156,453.6400146484375,460.19000244140625,460.19000244140625,1148500
2021-06-21,460.95001220703125,465.1499938964844,457.8299865722656,459.4599914550781,459.4599914550781,624800
2021-06-22,459.80999755859375,462.1600036621094,458.239990234375,459.82000732421875,459.82000732421875,452700
2021-06-23,458.2799987792969,460.6300048828125,454.6400146484375,456.75,456.75,406300
2021-06-24,460.260009765625,466.6099853515625,458.4599914550781,459.80999755859375,459.80999755859375,480400
2021-06-25,458.0,464.55999755859375,456.45001220703125,457.9800109863281,457.9800109863281,960600
2021-06-28,458.4599914550781,464.29998779296875,457.2200012207031,463.5299987792969,463.5299987792969,451400
2021-06-29,463.010009765625,466.6600036621094,460.80999755859375,463.45001220703125,463.45001220703125,439200
2021-06-30,465.2200012207031,469.25,463.94000244140625,466.489990234375,466.489990234375,747800
2021-07-01,466.739990234375,467.6099853515625,461.260009765625,466.0199890136719,466.0199890136719,440500
2021-07-02,468.57000732421875,475.57000732421875,466.260009765625,474.239990234375,474.239990234375,404000
2021-07-06,469.8800048828125,477.8500061035156,469.8800048828125,476.6099853515625,476.6099853515625,466400
2021-07-07,477.3900146484375,479.2699890136719,471.8500061035156,478.17999267578125,478.17999267578125,432300
2021-07-08,474.57000732421875,478.57000732421875,472.0199890136719,474.54998779296875,474.54998779296875,537500
2021-07-09,476.25,479.6700134277344,475.1000061035156,477.55999755859375,477.55999755859375,427200
2021-07-12,480.0,482.6099853515625,478.6700134277344,480.1099853515625,480.1099853515625,383700
2021-07-13,480.0400085449219,491.4200134277344,479.2300109863281,485.67999267578125,485.67999267578125,476500
2021-07-14,485.19000244140625,488.2200012207031,482.7900085449219,485.32000732421875,485.32000732421875,280300
2021-07-15,488.20001220703125,488.6400146484375,482.1300048828125,484.8399963378906,484.8399963378906,454800
2021-07-16,486.44000244140625,489.4800109863281,481.3999938964844,482.67999267578125,482.67999267578125,420700
2021-07-19,483.3500061035156,484.69000244140625,473.80999755859375,478.489990234375,478.489990234375,578600
2021-07-20,475.8299865722656,478.54998779296875,471.2799987792969,474.9700012207031,474.9700012207031,593000
2021-07-21,475.489990234375,476.45001220703125,465.92999267578125,470.3699951171875,470.3699951171875,614700
