Date,Open,High,Low,Close,Adj Close,Volume
2021-06-01,118.01000213623047,118.58999633789062,117.02999877929688,118.30999755859375,117.79415893554688,645700
2021-06-02,118.83000183105469,119.0,117.0,117.69999694824219,117.18681335449219,1299800
2021-06-03,117.11000061035156,117.91000366210938,116.12000274658203,117.8499984741211,117.33616638183594,643700
2021-06-04,118.04000091552734,118.5999984741211,117.43000030517578,118.3499984741211,117.833984375,462800
2021-06-07,118.70999908447266,118.70999908447266,116.69999694824219,118.48999786376953,117.97337341308594,534700
2021-06-08,118.37000274658203,119.77999877929688,117.83000183105469,119.13999938964844,118.62053680419922,709900
2021-06-09,119.2699966430664,119.75,118.29000091552734,118.30999755859375,117.79415893554688,590100
2021-06-10,118.98999786376953,119.29000091552734,118.0,118.61000061035156,118.09284973144531,596200
2021-06-11,119.38999938964844,120.25,118.2699966430664,119.41999816894531,118.8993148803711,519100
2021-06-14,119.41999816894531,119.41999816894531,117.68000030517578,118.45999908447266,117.9435043334961,571400
2021-06-15,118.70999908447266,119.05000305175781,116.9800033569336,118.76000213623047,118.24220275878906,509300
2021-06-16,118.88999938964844,118.91999816894531,116.87000274658203,117.4000015258789,116.88813018798828,679400
2021-06-17,117.08999633789062,118.16000366210938,116.2699966430664,118.0,117.48551177978516,1173900
2021-06-18,116.43000030517578,116.88999938964844,111.91999816894531,112.04000091552734,111.55149841308594,1592700
2021-06-21,112.91000366210938,114.66999816894531,112.69999694824219,114.13999938964844,113.64234161376953,719000
2021-06-22,114.43000030517578,114.9800033569336,112.87999725341797,114.58999633789062,114.09037780761719,686800
2021-06-23,115.0,115.29000091552734,114.0199966430664,114.20999908447266,113.7120361328125,542100
2021-06-24,112.88999938964844,113.76000213623047,111.72000122070312,112.8499984741211,112.35796356201172,1331400
2021-06-25,113.73999786376953,113.83000183105469,111.87999725341797,112.01000213623047,111.5216293334961,990100
2021-06-28,111.83999633789062,111.95999908447266,109.44999694824219,110.08999633789062,109.60999298095703,912300
2021-06-29,110.25,110.80999755859375,108.69999694824219,109.02999877929688,109.02999877929688,689600
2021-06-30,108.62999725341797,109.26000213623047,107.75,108.19999694824219,108.19999694824219,1369900
2021-07-01,108.93000030517578,109.4800033569336,108.16999816894531,108.54000091552734,108.54000091552734,871100
2021-07-02,108.75,108.83999633789062,107.9000015258789,108.52999877929688,108.52999877929688,708900
2021-07-06,108.2300033569336,108.5,105.38999938964844,106.70999908447266,106.70999908447266,920600
2021-07-07,106.45999908447266,107.27999877929688,104.5,105.69000244140625,105.69000244140625,1036400
2021-07-08,104.16999816894531,105.6500015258789,103.55999755859375,105.36000061035156,105.36000061035156,914600
2021-07-09,106.76000213623047,107.91999816894531,105.52999877929688,107.66000366210938,107.66000366210938,1313300
2021-07-12,107.11000061035156,109.13999938964844,106.55999755859375,108.7699966430664,108.7699966430664,1402500
2021-07-13,108.6500015258789,108.83000183105469,106.76000213623047,107.08999633789062,107.08999633789062,478700
2021-07-14,107.52999877929688,108.62000274658203,107.0199966430664,107.20999908447266,107.20999908447266,562400
2021-07-15,106.41999816894531,108.1500015258789,106.19999694824219,107.05999755859375,107.05999755859375,457600
2021-07-16,107.54000091552734,107.5999984741211,104.88999938964844,105.13999938964844,105.13999938964844,515500
2021-07-19,103.20999908447266,104.08999633789062,102.19999694824219,103.11000061035156,103.11000061035156,899700
2021-07-20,102.83999633789062,104.4000015258789,102.44999694824219,103.33999633789062,103.33999633789062,644600
2021-07-21,104.43000030517578,105.4800033569336,104.08000183105469,105.26000213623047,105.26000213623047,828000
