Date,Open,High,Low,Close,Adj Close,Volume
2021-06-01,132.0,133.0800018310547,131.38999938964844,132.08999633789062,131.26708984375,684700
2021-06-02,132.50999450683594,132.50999450683594,130.50999450683594,130.82000732421875,130.0050048828125,619900
2021-06-03,129.5399932861328,130.00999450683594,128.35000610351562,129.16000366210938,129.16000366210938,622700
2021-06-04,129.55999755859375,129.9600067138672,128.3300018310547,129.9499969482422,129.9499969482422,480400
2021-06-07,130.1699981689453,130.19000244140625,127.61000061035156,127.87000274658203,127.87000274658203,620200
2021-06-08,127.30999755859375,129.72000122070312,127.30999755859375,129.4199981689453,129.4199981689453,656600
2021-06-09,129.08999633789062,129.69000244140625,128.05999755859375,128.38999938964844,128.38999938964844,700300
2021-06-10,129.2899932861328,129.60000610351562,127.61000061035156,127.70999908447266,127.70999908447266,470200
2021-06-11,128.25,129.3000030517578,128.0500030517578,129.02999877929688,129.02999877929688,519600
2021-06-14,128.60000610351562,128.72999572753906,126.80999755859375,127.61000061035156,127.61000061035156,684200
2021-06-15,127.20999908447266,127.3499984741211,126.01000213623047,127.2699966430664,127.2699966430664,692400
2021-06-16,126.91999816894531,127.37999725341797,125.6500015258789,125.8499984741211,125.8499984741211,773100
2021-06-17,125.91999816894531,126.05999755859375,121.8499984741211,122.87999725341797,122.87999725341797,936000
2021-06-18,120.8499984741211,121.4800033569336,120.06999969482422,121.12000274658203,121.12000274658203,1703600
2021-06-21,122.43000030517578,124.70999908447266,122.06999969482422,124.41999816894531,124.41999816894531,706000
2021-06-22,124.5199966430664,125.5199966430664,123.08999633789062,124.94999694824219,124.94999694824219,607300
2021-06-23,125.23999786376953,126.22000122070312,124.4000015258789,125.31999969482422,125.31999969482422,599300
2021-06-24,126.01000213623047,126.62000274658203,125.25,126.16000366210938,126.16000366210938,447500
2021-06-25,126.5,127.91999816894531,126.5,127.6500015258789,127.6500015258789,711900
2021-06-28,127.23999786376953,127.29000091552734,125.1500015258789,125.51000213623047,125.51000213623047,439800
2021-06-29,126.30999755859375,127.56999969482422,126.30999755859375,126.70999908447266,126.70999908447266,385000
2021-06-30,126.5999984741211,127.20999908447266,125.83999633789062,126.47000122070312,126.47000122070312,471100
2021-07-01,126.98999786376953,128.4600067138672,126.54000091552734,128.30999755859375,128.30999755859375,506300
2021-07-02,128.66000366210938,129.38999938964844,128.1699981689453,129.05999755859375,129.05999755859375,452000
2021-07-06,128.9199981689453,129.16000366210938,126.38999938964844,127.44000244140625,127.44000244140625,655400
2021-07-07,126.81999969482422,129.1999969482422,126.68000030517578,128.6199951171875,128.6199951171875,421800
2021-07-08,126.8499984741211,128.5500030517578,126.47000122070312,127.1500015258789,127.1500015258789,712300
2021-07-09,129.11000061035156,129.75,128.19000244140625,129.52000427246094,129.52000427246094,642900
2021-07-12,128.75999450683594,130.0,128.02000427246094,129.5,129.5,486300
2021-07-13,128.77000427246094,129.22000122070312,127.47000122070312,127.66000366210938,127.66000366210938,516500
2021-07-14,128.14999389648438,128.8800048828125,127.3499984741211,128.7899932861328,128.7899932861328,527200
2021-07-15,128.0500030517578,129.61000061035156,128.0500030517578,129.00999450683594,129.00999450683594,437500
2021-07-16,129.64999389648438,129.88999938964844,127.37999725341797,127.61000061035156,127.61000061035156,382300
2021-07-19,126.05000305175781,126.66000366210938,124.62000274658203,125.62999725341797,125.62999725341797,638600
2021-07-20,126.44999694824219,129.30999755859375,125.4000015258789,128.3300018310547,128.3300018310547,751900
2021-07-21,128.9499969482422,129.9499969482422,128.52999877929688,129.1699981689453,129.1699981689453,667900
