Date,Open,High,Low,Close,Adj Close,Volume
2021-06-01,15.970000267028809,16.190000534057617,15.960000038146973,16.079999923706055,15.91319465637207,19691900
2021-06-02,16.100000381469727,16.1200008392334,15.84000015258789,15.880000114440918,15.715269088745117,13406800
2021-06-03,15.880000114440918,15.960000038146973,15.75,15.819999694824219,15.655891418457031,17579000
2021-06-04,15.829999923706055,15.859999656677246,15.369999885559082,15.630000114440918,15.467863082885742,14762400
2021-06-07,15.729999542236328,15.75,15.489999771118164,15.579999923706055,15.418380737304688,15515500
2021-06-08,15.460000038146973,15.470000267028809,15.039999961853027,15.210000038146973,15.05221939086914,157402000
2021-06-09,15.100000381469727,15.1899995803833,14.9399995803833,14.989999771118164,14.834501266479492,22044000
2021-06-10,15.15999984741211,15.1899995803833,14.4399995803833,14.5,14.349584579467773,26453400
2021-06-11,14.569999694824219,14.670000076293945,14.449999809265137,14.470000267028809,14.31989574432373,23928200
2021-06-14,14.510000228881836,14.59000015258789,14.270000457763672,14.369999885559082,14.220932960510254,27863000
2021-06-15,14.420000076293945,14.569999694824219,14.260000228881836,14.460000038146973,14.309999465942383,18634400
2021-06-16,14.239999771118164,14.489999771118164,14.0,14.369999885559082,14.369999885559082,19252400
2021-06-17,14.470000267028809,14.5,13.510000228881836,13.520000457763672,13.520000457763672,27363400
2021-06-18,13.390000343322754,13.390000343322754,13.010000228881836,13.270000457763672,13.270000457763672,45662500
2021-06-21,13.369999885559082,13.720000267028809,13.3100004196167,13.680000305175781,13.680000305175781,22054400
2021-06-22,13.680000305175781,13.729999542236328,13.430000305175781,13.680000305175781,13.680000305175781,14986500
2021-06-23,13.84000015258789,14.039999961853027,13.84000015258789,13.880000114440918,13.880000114440918,16804700
2021-06-24,13.9399995803833,14.270000457763672,13.84000015258789,14.220000267028809,14.220000267028809,17950200
2021-06-25,14.289999961853027,14.640000343322754,14.229999542236328,14.609999656677246,14.609999656677246,26081600
2021-06-28,14.510000228881836,14.539999961853027,14.170000076293945,14.329999923706055,14.329999923706055,19084600
2021-06-29,14.460000038146973,14.550000190734863,14.170000076293945,14.279999732971191,14.279999732971191,12271600
2021-06-30,14.25,14.350000381469727,14.109999656677246,14.270000457763672,14.270000457763672,13812900
2021-07-01,14.329999923706055,14.5,14.260000228881836,14.430000305175781,14.430000305175781,10314000
2021-07-02,14.380000114440918,14.449999809265137,14.260000228881836,14.350000381469727,14.350000381469727,7792900
2021-07-06,14.34000015258789,14.380000114440918,13.869999885559082,13.970000267028809,13.970000267028809,14771300
2021-07-07,13.800000190734863,14.069999694824219,13.789999961853027,13.930000305175781,13.930000305175781,12002100
2021-07-08,13.729999542236328,13.899999618530273,13.479999542236328,13.6899995803833,13.6899995803833,14893500
2021-07-09,14.0,14.300000190734863,13.90999984741211,14.270000457763672,14.270000457763672,12219500
2021-07-12,14.069999694824219,14.5,13.90999984741211,14.449999809265137,14.449999809265137,11637600
2021-07-13,14.420000076293945,14.430000305175781,14.0600004196167,14.149999618530273,14.149999618530273,10957400
2021-07-14,14.149999618530273,14.34000015258789,13.850000381469727,14.09000015258789,14.09000015258789,17936700
2021-07-15,13.9399995803833,14.319999694824219,13.829999923706055,14.260000228881836,14.260000228881836,9070400
2021-07-16,14.319999694824219,14.34000015258789,13.800000190734863,13.850000381469727,13.850000381469727,10640400
2021-07-19,13.520000457763672,13.600000381469727,13.140000343322754,13.229999542236328,13.229999542236328,14894200
2021-07-20,13.1899995803833,13.890000343322754,13.069999694824219,13.729999542236328,13.729999542236328,13478700
2021-07-21,13.869999885559082,14.180000305175781,13.850000381469727,14.050000190734863,14.050000190734863,8135000
