Date,Open,High,Low,Close,Adj Close,Volume
2021-06-01,19.6200008392334,20.040000915527344,19.610000610351562,19.8799991607666,19.8799991607666,3126100
2021-06-02,19.920000076293945,19.989999771118164,19.329999923706055,19.530000686645508,19.530000686645508,2738600
2021-06-03,19.459999084472656,19.639999389648438,19.270000457763672,19.5,19.5,2404300
2021-06-04,19.5,19.520000457763672,18.969999313354492,19.360000610351562,19.360000610351562,3952600
2021-06-07,19.510000228881836,19.690000534057617,19.450000762939453,19.459999084472656,19.459999084472656,2487500
2021-06-08,19.459999084472656,19.850000381469727,19.309999465942383,19.760000228881836,19.760000228881836,2215400
2021-06-09,19.690000534057617,19.770000457763672,19.209999084472656,19.299999237060547,19.299999237060547,2149900
2021-06-10,19.3799991607666,19.520000457763672,19.030000686645508,19.059999465942383,19.059999465942383,2459500
2021-06-11,19.229999542236328,19.540000915527344,19.110000610351562,19.530000686645508,19.530000686645508,2812300
2021-06-14,19.59000015258789,19.610000610351562,19.06999969482422,19.09000015258789,19.09000015258789,2518000
2021-06-15,19.15999984741211,19.31999969482422,18.979999542236328,19.25,19.25,2890400
2021-06-16,19.219999313354492,19.219999313354492,18.719999313354492,19.100000381469727,19.100000381469727,3006200
2021-06-17,19.09000015258789,19.229999542236328,18.209999084472656,18.59000015258789,18.59000015258789,3756000
2021-06-18,18.25,18.520000457763672,18.020000457763672,18.260000228881836,18.260000228881836,6353200
2021-06-21,18.31999969482422,18.639999389648438,18.299999237060547,18.559999465942383,18.559999465942383,2924500
2021-06-22,18.6299991607666,18.649999618530273,18.290000915527344,18.610000610351562,18.610000610351562,2640400
2021-06-23,18.719999313354492,18.81999969482422,18.459999084472656,18.510000228881836,18.510000228881836,4746600
2021-06-24,18.549999237060547,18.75,18.290000915527344,18.68000030517578,18.68000030517578,3040100
2021-06-25,18.84000015258789,19.1299991607666,18.729999542236328,18.90999984741211,18.90999984741211,7698000
2021-06-28,18.850000381469727,18.889999389648438,18.559999465942383,18.579999923706055,18.579999923706055,2501200
2021-06-29,18.690000534057617,18.8799991607666,18.459999084472656,18.459999084472656,18.459999084472656,2109500
2021-06-30,18.450000762939453,18.709999084472656,18.260000228881836,18.670000076293945,18.670000076293945,3274200
2021-07-01,18.690000534057617,19.260000228881836,18.579999923706055,18.780000686645508,18.780000686645508,3995000
2021-07-02,18.75,18.799999237060547,18.40999984741211,18.549999237060547,18.549999237060547,3009700
2021-07-06,18.5,18.610000610351562,17.739999771118164,17.829999923706055,17.829999923706055,5215300
2021-07-07,17.670000076293945,17.8700008392334,17.450000762939453,17.59000015258789,17.59000015258789,4402400
2021-07-08,17.360000610351562,17.690000534057617,17.200000762939453,17.459999084472656,17.459999084472656,4419900
2021-07-09,17.739999771118164,18.15999984741211,17.719999313354492,18.100000381469727,18.100000381469727,3361100
2021-07-12,17.950000762939453,18.280000686645508,17.690000534057617,18.1200008392334,18.1200008392334,2826800
2021-07-13,18.770000457763672,18.770000457763672,18.079999923706055,18.149999618530273,18.149999618530273,4888600
2021-07-14,18.139999389648438,18.34000015258789,18.06999969482422,18.139999389648438,18.139999389648438,2618700
2021-07-15,18.040000915527344,18.1299991607666,17.729999542236328,17.979999542236328,17.979999542236328,4160100
2021-07-16,18.079999923706055,18.1299991607666,17.420000076293945,17.420000076293945,17.420000076293945,3143200
2021-07-19,17.049999237060547,17.5,16.959999084472656,17.309999465942383,17.309999465942383,4418800
2021-07-20,17.270000457763672,17.850000381469727,17.200000762939453,17.790000915527344,17.790000915527344,3929600
2021-07-21,17.920000076293945,18.299999237060547,17.899999618530273,18.100000381469727,18.100000381469727,3182300
