Date,Open,High,Low,Close,Adj Close,Volume
2021-06-01,48.77000045776367,49.029998779296875,48.13999938964844,48.34000015258789,48.09197235107422,1934500
2021-06-02,48.31999969482422,49.20000076293945,48.0,49.20000076293945,48.94755935668945,1969700
2021-06-03,49.11000061035156,49.70000076293945,49.11000061035156,49.63999938964844,49.38530349731445,1853200
2021-06-04,49.650001525878906,49.81999969482422,49.22999954223633,49.43000030517578,49.1763801574707,1810100
2021-06-07,49.439998626708984,49.529998779296875,48.79999923706055,49.18000030517578,48.92766189575195,1496300
2021-06-08,49.13999938964844,49.279998779296875,48.63999938964844,48.720001220703125,48.47002410888672,2035400
2021-06-09,48.220001220703125,48.900001525878906,48.11000061035156,48.279998779296875,48.03227996826172,2266900
2021-06-10,48.310001373291016,48.790000915527344,48.13999938964844,48.66999816894531,48.4202766418457,1951200
2021-06-11,48.77000045776367,48.95000076293945,48.33000183105469,48.779998779296875,48.52971267700195,1677000
2021-06-14,48.66999816894531,48.97999954223633,48.18000030517578,48.90999984741211,48.65904998779297,1770500
2021-06-15,49.0099983215332,49.279998779296875,48.59000015258789,48.63999938964844,48.39043426513672,1233000
2021-06-16,48.77000045776367,48.83000183105469,47.95000076293945,47.970001220703125,47.723873138427734,1493600
2021-06-17,47.93000030517578,48.45000076293945,47.70000076293945,48.34000015258789,48.09197235107422,1956600
2021-06-18,48.20000076293945,48.20000076293945,47.36000061035156,47.41999816894531,47.176692962646484,3939300
2021-06-21,47.61000061035156,47.90999984741211,47.5099983215332,47.81999969482422,47.574642181396484,1550300
2021-06-22,47.86000061035156,48.060001373291016,47.68000030517578,47.7400016784668,47.495052337646484,1580800
2021-06-23,47.63999938964844,47.84000015258789,47.369998931884766,47.43000030517578,47.186641693115234,1827000
2021-06-24,47.36000061035156,47.7599983215332,47.189998626708984,47.400001525878906,47.15679931640625,1244800
2021-06-25,47.29999923706055,47.810001373291016,47.29999923706055,47.7599983215332,47.51494598388672,1397600
2021-06-28,47.84000015258789,48.0099983215332,47.599998474121094,47.77000045776367,47.524898529052734,1171700
2021-06-29,47.7400016784668,47.959999084472656,47.41999816894531,47.540000915527344,47.296077728271484,1136100
2021-06-30,47.5,47.880001068115234,47.47999954223633,47.75,47.505001068115234,2000700
2021-07-01,47.72999954223633,47.77000045776367,47.439998626708984,47.56999969482422,47.325923919677734,1344100
2021-07-02,47.7400016784668,47.900001525878906,47.68000030517578,47.77000045776367,47.524898529052734,1440100
2021-07-06,47.70000076293945,47.97999954223633,47.52000045776367,47.900001525878906,47.654232025146484,1305600
2021-07-07,47.849998474121094,48.290000915527344,47.72999954223633,48.029998779296875,47.78356170654297,1392100
2021-07-08,47.939998626708984,48.59000015258789,47.630001068115234,47.75,47.505001068115234,1342000
2021-07-09,47.630001068115234,47.72999954223633,47.25,47.439998626708984,47.439998626708984,1638700
2021-07-12,47.47999954223633,47.5099983215332,46.81999969482422,47.040000915527344,47.040000915527344,1775900
2021-07-13,47.060001373291016,47.779998779296875,46.959999084472656,47.130001068115234,47.130001068115234,2974700
2021-07-14,47.0099983215332,47.279998779296875,46.77000045776367,47.209999084472656,47.209999084472656,1410200
2021-07-15,47.22999954223633,47.95000076293945,46.790000915527344,47.849998474121094,47.849998474121094,1964600
2021-07-16,48.06999969482422,48.5,47.900001525878906,48.27000045776367,48.27000045776367,1856400
2021-07-19,48.36000061035156,48.83000183105469,47.630001068115234,48.310001373291016,48.310001373291016,1776500
2021-07-20,48.38999938964844,48.880001068115234,47.79999923706055,47.869998931884766,47.869998931884766,2638700
2021-07-21,47.880001068115234,47.880001068115234,47.150001525878906,47.16999816894531,47.16999816894531,1748700
