Date,Open,High,Low,Close,Adj Close,Volume
2021-06-01,75.80999755859375,76.45999908447266,75.27999877929688,76.06999969482422,76.06999969482422,1006400
2021-06-02,76.19999694824219,76.58999633789062,75.33000183105469,75.41999816894531,75.41999816894531,642800
2021-06-03,75.06999969482422,78.12000274658203,74.8499984741211,77.95999908447266,77.95999908447266,995500
2021-06-04,77.7300033569336,78.33000183105469,77.33999633789062,77.9000015258789,77.9000015258789,924100
2021-06-07,78.23999786376953,78.56999969482422,77.26000213623047,77.30000305175781,77.30000305175781,647400
2021-06-08,77.16999816894531,77.88999938964844,76.58000183105469,77.69999694824219,77.69999694824219,483700
2021-06-09,77.80999755859375,78.16000366210938,77.20999908447266,77.5999984741211,77.5999984741211,437000
2021-06-10,78.55999755859375,78.9000015258789,77.91999816894531,78.58000183105469,78.58000183105469,517600
2021-06-11,78.70999908447266,78.98999786376953,78.51000213623047,78.9000015258789,78.9000015258789,441900
2021-06-14,78.73999786376953,78.94999694824219,77.05999755859375,77.43000030517578,77.43000030517578,567300
2021-06-15,77.5999984741211,78.56999969482422,77.19999694824219,78.4000015258789,78.4000015258789,496800
2021-06-16,78.1500015258789,78.20999908447266,76.98999786376953,77.41999816894531,77.41999816894531,685500
2021-06-17,77.80999755859375,78.06999969482422,75.47000122070312,76.69000244140625,76.69000244140625,1082000
2021-06-18,76.26000213623047,76.41000366210938,74.7699966430664,75.0199966430664,75.0199966430664,1500800
2021-06-21,75.41999816894531,76.66000366210938,75.3499984741211,76.38999938964844,76.38999938964844,570400
2021-06-22,76.45999908447266,76.62000274658203,75.83999633789062,76.41999816894531,76.41999816894531,503600
2021-06-23,75.62999725341797,75.69999694824219,74.29000091552734,74.47000122070312,74.47000122070312,1581300
2021-06-24,74.80000305175781,75.30000305175781,74.26000213623047,75.13999938964844,75.13999938964844,1008400
2021-06-25,75.19999694824219,75.68000030517578,74.88999938964844,75.01000213623047,75.01000213623047,1608200
2021-06-28,74.9800033569336,75.05999755859375,73.73999786376953,74.33000183105469,74.33000183105469,522000
2021-06-29,74.72000122070312,74.95999908447266,73.91999816894531,74.0,74.0,576100
2021-06-30,74.22000122070312,74.38999938964844,73.83999633789062,74.19000244140625,74.19000244140625,588900
2021-07-01,74.62000274658203,75.9800033569336,74.37999725341797,75.51000213623047,75.51000213623047,976500
2021-07-02,75.4000015258789,76.16000366210938,74.94999694824219,75.97000122070312,75.97000122070312,730000
2021-07-06,75.68000030517578,76.2300033569336,74.37999725341797,76.04000091552734,76.04000091552734,1134600
2021-07-07,75.95999908447266,77.0,75.58999633789062,76.66999816894531,76.66999816894531,729800
2021-07-08,76.4000015258789,76.4000015258789,75.06999969482422,75.77999877929688,75.77999877929688,685600
2021-07-09,76.26000213623047,77.02999877929688,76.23999786376953,76.80999755859375,76.80999755859375,584700
2021-07-12,76.54000091552734,77.12999725341797,76.06999969482422,77.0199966430664,77.0199966430664,434600
2021-07-13,76.86000061035156,77.08999633789062,76.19999694824219,76.38999938964844,76.38999938964844,848700
2021-07-14,76.30000305175781,77.16999816894531,76.05999755859375,76.77999877929688,76.77999877929688,552600
2021-07-15,76.19999694824219,77.0,75.26000213623047,75.33999633789062,75.33999633789062,1056500
2021-07-16,75.33000183105469,75.76000213623047,75.02999877929688,75.12000274658203,75.12000274658203,569600
2021-07-19,74.52999877929688,74.5999984741211,73.08999633789062,73.80000305175781,73.80000305175781,800100
2021-07-20,74.2300033569336,76.11000061035156,74.2300033569336,75.7699966430664,75.7699966430664,1448800
2021-07-21,76.3499984741211,77.77999877929688,76.3499984741211,77.13999938964844,77.13999938964844,780800
