Date,Open,High,Low,Close,Adj Close,Volume
2021-06-01,84.12999725341797,84.41000366210938,82.38999938964844,82.88999938964844,82.88999938964844,938800
2021-06-02,82.87000274658203,83.37000274658203,82.0,82.26000213623047,82.26000213623047,969100
2021-06-03,82.44000244140625,83.12000274658203,81.45999908447266,82.9000015258789,82.9000015258789,1004400
2021-06-04,83.16999816894531,84.44999694824219,82.86000061035156,83.33000183105469,83.33000183105469,1017900
2021-06-07,83.4800033569336,85.79000091552734,83.04000091552734,85.11000061035156,85.11000061035156,1205700
2021-06-08,85.87999725341797,86.30000305175781,83.97000122070312,84.80999755859375,84.80999755859375,965800
2021-06-09,84.7699966430664,86.33999633789062,84.69000244140625,86.19999694824219,86.19999694824219,958500
2021-06-10,86.37999725341797,87.6500015258789,85.63999938964844,87.52999877929688,87.52999877929688,1030900
2021-06-11,84.66999816894531,85.0,81.05999755859375,82.58000183105469,82.58000183105469,2683100
2021-06-14,82.94000244140625,83.27999877929688,81.04000091552734,82.63999938964844,82.63999938964844,1437500
2021-06-15,82.55000305175781,83.27999877929688,82.26000213623047,82.76000213623047,82.76000213623047,1512600
2021-06-16,82.91000366210938,84.08000183105469,82.2699966430664,83.12000274658203,83.12000274658203,2064200
2021-06-17,82.87999725341797,83.58000183105469,82.0,83.12999725341797,83.12999725341797,1457100
2021-06-18,83.0,84.13999938964844,82.62000274658203,83.95999908447266,83.95999908447266,2074200
2021-06-21,84.41999816894531,85.18000030517578,84.08999633789062,84.93000030517578,84.93000030517578,1454800
2021-06-22,85.1500015258789,85.98999786376953,82.44000244140625,85.08999633789062,85.08999633789062,2130300
2021-06-23,85.5,85.75,84.30999755859375,85.12999725341797,85.12999725341797,1200900
2021-06-24,85.41000366210938,86.52999877929688,84.41999816894531,86.12999725341797,86.12999725341797,1415900
2021-06-25,85.5199966430664,87.01000213623047,84.69000244140625,86.83000183105469,86.83000183105469,1930600
2021-06-28,88.12000274658203,88.26000213623047,85.31999969482422,85.61000061035156,85.61000061035156,968200
2021-06-29,85.20999908447266,85.97000122070312,84.51000213623047,84.69999694824219,84.69999694824219,722600
2021-06-30,84.87000274658203,84.98999786376953,83.86000061035156,84.12999725341797,84.12999725341797,973200
2021-07-01,84.08999633789062,84.5,83.12000274658203,84.0199966430664,84.0199966430664,1564000
2021-07-02,84.05000305175781,84.2300033569336,82.8499984741211,83.58000183105469,83.58000183105469,1034000
2021-07-06,83.31999969482422,83.75,82.9000015258789,83.33999633789062,83.33999633789062,1069100
2021-07-07,83.41999816894531,83.41999816894531,81.63999938964844,82.12999725341797,82.12999725341797,979300
2021-07-08,81.25,82.4800033569336,81.11000061035156,81.43000030517578,81.43000030517578,1018500
2021-07-09,81.1500015258789,82.12000274658203,80.44000244140625,82.04000091552734,82.04000091552734,880300
2021-07-12,82.04000091552734,82.44000244140625,80.88999938964844,81.18000030517578,81.18000030517578,991700
2021-07-13,81.13999938964844,81.56999969482422,80.25,80.62000274658203,80.62000274658203,695700
2021-07-14,80.80999755859375,80.9000015258789,79.52999877929688,79.87000274658203,79.87000274658203,713100
2021-07-15,79.80000305175781,80.4800033569336,78.80000305175781,79.98999786376953,79.98999786376953,1015200
2021-07-16,80.2300033569336,80.58000183105469,77.55000305175781,78.33000183105469,78.33000183105469,1803000
2021-07-19,78.0999984741211,79.58000183105469,77.30000305175781,77.55999755859375,77.55999755859375,1328500
2021-07-20,78.45999908447266,79.29000091552734,78.0,79.20999908447266,79.20999908447266,1863400
2021-07-21,78.93000030517578,79.80000305175781,78.30000305175781,79.13999938964844,79.13999938964844,1166000
