Date,Open,High,Low,Close,Adj Close,Volume
2021-06-01,64.16000366210938,64.29000091552734,63.209999084472656,63.83000183105469,63.83000183105469,2124000
2021-06-02,63.9900016784668,63.9900016784668,63.060001373291016,63.22999954223633,63.22999954223633,1952100
2021-06-03,63.209999084472656,64.44999694824219,62.9900016784668,64.19000244140625,64.19000244140625,2479100
2021-06-04,64.6500015258789,65.2699966430664,64.29000091552734,64.6500015258789,64.6500015258789,2360900
2021-06-07,64.88999938964844,64.98999786376953,63.529998779296875,63.72999954223633,63.72999954223633,2921300
2021-06-08,63.599998474121094,64.37999725341797,63.209999084472656,64.1500015258789,64.1500015258789,1766600
2021-06-09,63.97999954223633,64.23999786376953,63.22999954223633,63.279998779296875,63.279998779296875,1989500
2021-06-10,63.810001373291016,64.0,62.77000045776367,62.83000183105469,62.83000183105469,1634200
2021-06-11,63.630001068115234,63.790000915527344,62.880001068115234,63.650001525878906,63.650001525878906,2363800
2021-06-14,63.7599983215332,63.95000076293945,62.06999969482422,62.29999923706055,62.29999923706055,2824100
2021-06-15,62.31999969482422,63.72999954223633,62.08000183105469,63.189998626708984,63.189998626708984,2796800
2021-06-16,63.02000045776367,63.15999984741211,61.84000015258789,62.22999954223633,62.22999954223633,1709300
2021-06-17,62.22999954223633,62.290000915527344,59.40999984741211,60.22999954223633,60.22999954223633,3426600
2021-06-18,59.310001373291016,59.79999923706055,59.029998779296875,59.22999954223633,59.22999954223633,5381900
2021-06-21,59.849998474121094,61.31999969482422,59.75,61.040000915527344,61.040000915527344,2173000
2021-06-22,61.18000030517578,61.5099983215332,60.65999984741211,61.060001373291016,61.060001373291016,1643500
2021-06-23,61.04999923706055,61.310001373291016,60.599998474121094,60.790000915527344,60.790000915527344,1469100
2021-06-24,61.150001525878906,61.18000030517578,60.349998474121094,60.779998779296875,60.779998779296875,1577000
2021-06-25,60.90999984741211,61.5099983215332,60.59000015258789,60.68000030517578,60.68000030517578,2338500
2021-06-28,61.09000015258789,61.279998779296875,60.38999938964844,60.709999084472656,60.709999084472656,2366000
2021-06-29,61.119998931884766,61.709999084472656,60.400001525878906,60.689998626708984,60.689998626708984,1331400
2021-06-30,60.529998779296875,61.41999816894531,60.459999084472656,61.310001373291016,61.310001373291016,1800000
2021-07-01,61.709999084472656,62.0,61.06999969482422,61.47999954223633,61.47999954223633,2054800
2021-07-02,61.5,61.5,60.720001220703125,61.31999969482422,61.31999969482422,1755700
2021-07-06,61.220001220703125,61.439998626708984,59.779998779296875,60.380001068115234,60.380001068115234,2283300
2021-07-07,60.0,61.68000030517578,59.95000076293945,61.41999816894531,61.41999816894531,2637200
2021-07-08,60.779998779296875,61.939998626708984,60.369998931884766,61.33000183105469,61.33000183105469,2259100
2021-07-09,62.16999816894531,62.70000076293945,62.02000045776367,62.2400016784668,62.2400016784668,1756700
2021-07-12,61.7599983215332,62.47999954223633,61.13999938964844,62.22999954223633,62.22999954223633,2155800
2021-07-13,62.20000076293945,62.36000061035156,61.20000076293945,61.439998626708984,61.439998626708984,1382000
2021-07-14,61.43000030517578,62.029998779296875,61.31999969482422,61.45000076293945,61.45000076293945,1816800
2021-07-15,60.880001068115234,61.27000045776367,59.630001068115234,59.88999938964844,59.88999938964844,3871300
2021-07-16,60.150001525878906,60.369998931884766,59.040000915527344,59.130001068115234,59.130001068115234,2658100
2021-07-19,58.310001373291016,58.47999954223633,57.119998931884766,57.77000045776367,57.77000045776367,2864000
2021-07-20,57.900001525878906,59.150001525878906,57.77000045776367,58.25,58.25,2635300
2021-07-21,58.810001373291016,59.0,58.41999816894531,58.470001220703125,58.470001220703125,2315600
