Date,Open,High,Low,Close,Adj Close,Volume
2021-06-01,68.33000183105469,68.33000183105469,66.87999725341797,67.02999877929688,66.7554931640625,3464700
2021-06-02,66.94000244140625,67.16000366210938,66.16999816894531,66.38999938964844,66.11811828613281,3253800
2021-06-03,66.22000122070312,66.70999908447266,65.61000061035156,66.5999984741211,66.32725524902344,2465900
2021-06-04,66.87999725341797,67.0,66.30000305175781,66.7300033569336,66.45672607421875,3269000
2021-06-07,67.08000183105469,67.29000091552734,65.94000244140625,66.19999694824219,65.92889404296875,2439300
2021-06-08,68.0,68.0,66.54000091552734,67.23999786376953,66.96463012695312,4417000
2021-06-09,66.91000366210938,67.30000305175781,66.58000183105469,66.86000061035156,66.58618927001953,3960300
2021-06-10,67.37000274658203,67.48999786376953,66.73999786376953,66.9800033569336,66.70570373535156,3915900
2021-06-11,67.0,67.2699966430664,66.44000244140625,67.04000091552734,66.76545715332031,3452200
2021-06-14,66.73999786376953,67.1500015258789,65.61000061035156,66.16000366210938,65.8890609741211,3142700
2021-06-15,66.37999725341797,67.36000061035156,65.95999908447266,67.30999755859375,67.03434753417969,3925100
2021-06-16,67.12000274658203,67.47000122070312,66.5,67.26000213623047,66.98455810546875,4586700
2021-06-17,67.22000122070312,67.36000061035156,64.95999908447266,65.93000030517578,65.66000366210938,5628500
2021-06-18,65.2300033569336,65.38999938964844,64.37000274658203,64.44000244140625,64.44000244140625,7274400
2021-06-21,65.02999877929688,66.5,64.87000274658203,66.33000183105469,66.33000183105469,3844100
2021-06-22,66.37999725341797,67.11000061035156,65.87999725341797,66.72000122070312,66.72000122070312,3037000
2021-06-23,66.94999694824219,67.0199966430664,66.25,66.44000244140625,66.44000244140625,2294300
2021-06-24,66.86000061035156,67.01000213623047,66.2699966430664,66.58000183105469,66.58000183105469,2819400
2021-06-25,66.87000274658203,67.4800033569336,66.75,67.08999633789062,67.08999633789062,11399700
2021-06-28,67.31999969482422,67.72000122070312,66.7300033569336,67.55999755859375,67.55999755859375,3756200
2021-06-29,67.95999908447266,68.55999755859375,67.8499984741211,68.37000274658203,68.37000274658203,5069000
2021-06-30,68.19000244140625,68.94999694824219,68.05999755859375,68.62999725341797,68.62999725341797,4800300
2021-07-01,69.0199966430664,69.20999908447266,68.44000244140625,69.01000213623047,69.01000213623047,2842000
2021-07-02,68.94000244140625,69.22000122070312,68.75,69.18000030517578,69.18000030517578,1978500
2021-07-06,69.30000305175781,69.3499984741211,67.56999969482422,68.3499984741211,68.3499984741211,3136700
2021-07-07,68.30999755859375,69.69999694824219,68.05999755859375,69.52999877929688,69.52999877929688,5716400
2021-07-08,68.0,69.22000122070312,68.0,68.91000366210938,68.91000366210938,5123800
2021-07-09,69.68000030517578,70.44999694824219,69.48999786376953,70.05999755859375,70.05999755859375,4171700
2021-07-12,69.58000183105469,70.80999755859375,69.33000183105469,70.69000244140625,70.69000244140625,2728400
2021-07-13,70.6500015258789,70.69000244140625,69.44000244140625,69.62000274658203,69.62000274658203,3523200
2021-07-14,69.83999633789062,70.44999694824219,69.70999908447266,69.8499984741211,69.8499984741211,4298100
2021-07-15,69.48999786376953,70.18000030517578,69.30999755859375,70.12000274658203,70.12000274658203,4558400
2021-07-16,70.33999633789062,70.51000213623047,69.47000122070312,69.7300033569336,69.7300033569336,4840900
2021-07-19,68.56999969482422,68.73999786376953,67.38999938964844,68.02999877929688,68.02999877929688,4949300
2021-07-20,67.98999786376953,69.94999694824219,67.98999786376953,69.73999786376953,69.73999786376953,3448900
2021-07-21,70.12000274658203,70.70999908447266,69.9000015258789,70.55999755859375,70.55999755859375,3715000
