Date,Open,High,Low,Close,Adj Close,Volume
2021-06-01,43.720001220703125,44.029998779296875,43.619998931884766,43.849998474121094,43.849998474121094,3496800
2021-06-02,43.970001220703125,44.220001220703125,43.71900177001953,44.09000015258789,44.09000015258789,3525100
2021-06-03,43.97999954223633,44.029998779296875,43.56999969482422,43.9900016784668,43.9900016784668,4312200
2021-06-04,44.189998626708984,44.334999084472656,43.724998474121094,43.959999084472656,43.959999084472656,3091700
2021-06-07,43.880001068115234,44.099998474121094,43.540000915527344,43.880001068115234,43.880001068115234,4285800
2021-06-08,43.83000183105469,43.93000030517578,43.632999420166016,43.779998779296875,43.779998779296875,3523700
2021-06-09,43.11000061035156,43.61000061035156,42.93000030517578,43.040000915527344,43.040000915527344,5710900
2021-06-10,43.0099983215332,43.29999923706055,42.91999816894531,42.95000076293945,42.95000076293945,3195000
2021-06-11,42.91600036621094,43.494998931884766,42.91600036621094,43.41999816894531,43.41999816894531,5078600
2021-06-14,43.349998474121094,43.349998474121094,42.11000061035156,42.81999969482422,42.81999969482422,7227500
2021-06-15,42.88999938964844,42.9900016784668,42.529998779296875,42.7599983215332,42.7599983215332,5992400
2021-06-16,42.599998474121094,42.68000030517578,41.869998931884766,41.90999984741211,41.90999984741211,4601100
2021-06-17,41.88999938964844,41.88999938964844,41.099998474121094,41.33000183105469,41.33000183105469,7362500
2021-06-18,41.16999816894531,41.279998779296875,40.26499938964844,40.5,40.5,8795500
2021-06-21,40.59000015258789,40.93000030517578,40.33100128173828,40.83000183105469,40.83000183105469,5012800
2021-06-22,40.935001373291016,40.935001373291016,40.5099983215332,40.54999923706055,40.54999923706055,3341800
2021-06-23,40.54399871826172,40.54999923706055,40.119998931884766,40.13999938964844,40.13999938964844,3559000
2021-06-24,40.220001220703125,40.52000045776367,39.77000045776367,40.369998931884766,40.369998931884766,4986600
2021-06-25,40.400001525878906,40.79499816894531,40.2599983215332,40.689998626708984,40.689998626708984,3569300
2021-06-28,40.755001068115234,40.994998931884766,40.619998931884766,40.880001068115234,40.880001068115234,3837100
2021-06-29,40.810001373291016,41.02000045776367,40.404998779296875,40.58000183105469,40.58000183105469,2874900
2021-06-30,40.52000045776367,40.9900016784668,40.5,40.779998779296875,40.779998779296875,4348500
2021-07-01,40.92499923706055,40.92499923706055,40.44499969482422,40.4900016784668,40.4900016784668,2816300
2021-07-02,40.4900016784668,40.599998474121094,40.220001220703125,40.380001068115234,40.380001068115234,2698200
2021-07-06,40.59000015258789,40.59000015258789,39.220001220703125,39.650001525878906,39.650001525878906,6371100
2021-07-07,39.560001373291016,40.040000915527344,39.52000045776367,39.849998474121094,39.849998474121094,4974400
2021-07-08,39.59000015258789,40.029998779296875,39.369998931884766,39.599998474121094,39.599998474121094,4303200
2021-07-09,39.68000030517578,40.005001068115234,39.630001068115234,39.95000076293945,39.95000076293945,4356500
2021-07-12,39.83000183105469,39.869998931884766,39.5099983215332,39.790000915527344,39.790000915527344,5298100
2021-07-13,39.58399963378906,39.79999923706055,38.9900016784668,39.15999984741211,39.15999984741211,5212500
2021-07-14,39.13999938964844,39.25,38.59000015258789,38.9900016784668,38.9900016784668,5292600
2021-07-15,38.869998931884766,39.55500030517578,38.849998474121094,39.43000030517578,39.43000030517578,5314300
2021-07-16,39.47999954223633,39.56999969482422,39.26100158691406,39.29999923706055,39.29999923706055,4084300
2021-07-19,39.20000076293945,39.689998626708984,38.77000045776367,39.34000015258789,39.34000015258789,4266200
2021-07-20,39.47999954223633,39.90800094604492,39.28499984741211,39.400001525878906,39.400001525878906,4285800
2021-07-21,39.582000732421875,39.69599914550781,39.33000183105469,39.369998931884766,39.369998931884766,2973100
