Date,Open,High,Low,Close,Adj Close,Volume
2021-06-01,100.08999633789062,100.7699966430664,97.58999633789062,98.5,98.25214385986328,1808700
2021-06-02,98.72000122070312,98.72000122070312,96.16999816894531,96.3499984741211,96.10755157470703,2590000
2021-06-03,95.33000183105469,95.83999633789062,93.91000366210938,94.97000122070312,94.73102569580078,2584200
2021-06-04,95.54000091552734,96.80999755859375,94.33999633789062,96.5999984741211,96.35691833496094,2275100
2021-06-07,96.69999694824219,96.81999969482422,94.5,95.76000213623047,95.51903533935547,1795000
2021-06-08,96.13999938964844,96.62999725341797,95.5,95.87999725341797,95.63873291015625,1443900
2021-06-09,96.3499984741211,96.58999633789062,93.55000305175781,93.9000015258789,93.6637191772461,1765800
2021-06-10,93.62000274658203,93.62000274658203,90.52999877929688,91.13999938964844,90.91065979003906,3418700
2021-06-11,91.48999786376953,92.80999755859375,91.47000122070312,92.73999786376953,92.50662994384766,1931900
2021-06-14,92.6500015258789,93.73999786376953,91.08999633789062,92.04000091552734,91.80839538574219,3143600
2021-06-15,92.04000091552734,93.04000091552734,91.05999755859375,92.55000305175781,92.3171157836914,2345200
2021-06-16,92.95999908447266,93.11000061035156,90.91999816894531,91.33999633789062,91.11015319824219,3646700
2021-06-17,91.6500015258789,96.38999938964844,91.6500015258789,94.6500015258789,94.41183471679688,6416000
2021-06-18,96.25,99.76000213623047,95.2699966430664,98.16999816894531,97.9229736328125,7600200
2021-06-21,98.55999755859375,99.4800033569336,96.75,97.5999984741211,97.35440826416016,3765900
2021-06-22,97.7300033569336,98.72000122070312,97.0,98.5,98.25214385986328,2531500
2021-06-23,98.68000030517578,98.77999877929688,95.30000305175781,96.9800033569336,96.73596954345703,2761800
2021-06-24,96.9800033569336,97.43000030517578,95.91000366210938,97.2699966430664,97.02523040771484,2631200
2021-06-25,97.36000061035156,97.94000244140625,96.25,97.08999633789062,96.84568786621094,3081500
2021-06-28,97.62999725341797,98.8499984741211,97.26000213623047,98.41000366210938,98.16236877441406,1745200
2021-06-29,98.25,101.38999938964844,98.05000305175781,99.22000122070312,98.97032928466797,2488300
2021-06-30,99.31999969482422,100.18000030517578,98.69999694824219,99.3499984741211,99.0999984741211,2212900
2021-07-01,99.44999694824219,102.2300033569336,98.83999633789062,101.77999877929688,101.77999877929688,2717100
2021-07-02,102.06999969482422,102.38999938964844,100.91000366210938,101.38999938964844,101.38999938964844,1882900
2021-07-06,100.81999969482422,101.0999984741211,98.73999786376953,99.83000183105469,99.83000183105469,3364600
2021-07-07,99.80000305175781,102.79000091552734,99.80000305175781,102.13999938964844,102.13999938964844,2784000
2021-07-08,99.0,100.3499984741211,97.54000091552734,98.47000122070312,98.47000122070312,4466600
2021-07-09,99.36000061035156,100.1500015258789,98.5,98.93000030517578,98.93000030517578,2063500
2021-07-12,97.9800033569336,99.05999755859375,97.4800033569336,98.68000030517578,98.68000030517578,1732200
2021-07-13,98.22000122070312,98.22000122070312,95.66000366210938,95.80000305175781,95.80000305175781,2276700
2021-07-14,96.68000030517578,97.37999725341797,95.80000305175781,96.33000183105469,96.33000183105469,1347000
2021-07-15,95.77999877929688,97.19999694824219,95.31999969482422,96.86000061035156,96.86000061035156,1463900
2021-07-16,96.94999694824219,98.2300033569336,95.77999877929688,95.95999908447266,95.95999908447266,1622200
2021-07-19,94.47000122070312,96.86000061035156,94.06999969482422,96.16000366210938,96.16000366210938,2262400
2021-07-20,96.44000244140625,98.9800033569336,95.98999786376953,98.5,98.5,1951200
2021-07-21,98.83999633789062,100.6500015258789,98.58999633789062,100.5999984741211,100.5999984741211,2022300
