Date,Open,High,Low,Close,Adj Close,Volume
2021-06-01,206.3800048828125,206.3800048828125,195.4499969482422,204.64999389648438,204.64999389648438,1975200
2021-06-02,204.61000061035156,204.99000549316406,199.75,202.77000427246094,202.77000427246094,903900
2021-06-03,202.63999938964844,202.63999938964844,198.1199951171875,201.92999267578125,201.92999267578125,475100
2021-06-04,203.0,203.11000061035156,197.55999755859375,201.41000366210938,201.41000366210938,423000
2021-06-07,202.33999633789062,203.13999938964844,198.97999572753906,201.25,201.25,291100
2021-06-08,200.89999389648438,204.75,200.16000366210938,203.13999938964844,203.13999938964844,264700
2021-06-09,202.47000122070312,203.64999389648438,198.22000122070312,198.39999389648438,198.39999389648438,368100
2021-06-10,200.1300048828125,200.3800048828125,190.41000366210938,190.94000244140625,190.94000244140625,966300
2021-06-11,192.82000732421875,193.89999389648438,191.11000061035156,193.1300048828125,193.1300048828125,453000
2021-06-14,191.83999633789062,192.5,186.61000061035156,188.24000549316406,188.24000549316406,452700
2021-06-15,188.2100067138672,190.0399932861328,186.9600067138672,189.6199951171875,189.6199951171875,625800
2021-06-16,188.52000427246094,189.61000061035156,184.55999755859375,186.60000610351562,186.60000610351562,532200
2021-06-17,186.60000610351562,187.3699951171875,180.3300018310547,183.8800048828125,183.8800048828125,470200
2021-06-18,179.94000244140625,181.44000244140625,178.2899932861328,180.66000366210938,180.66000366210938,696200
2021-06-21,184.25,189.61000061035156,182.61000061035156,187.1999969482422,187.1999969482422,587000
2021-06-22,186.66000366210938,191.4600067138672,185.55999755859375,190.0500030517578,190.0500030517578,538700
2021-06-23,191.14999389648438,192.10000610351562,188.2899932861328,188.32000732421875,188.32000732421875,379500
2021-06-24,189.85000610351562,191.25999450683594,186.5,190.22000122070312,190.22000122070312,467700
2021-06-25,191.88999938964844,196.99000549316406,190.63999938964844,195.72000122070312,195.72000122070312,692800
2021-06-28,194.60000610351562,194.60000610351562,189.14999389648438,189.88999938964844,189.88999938964844,497700
2021-06-29,191.63999938964844,192.02000427246094,189.60000610351562,190.35000610351562,190.35000610351562,425000
2021-06-30,189.35000610351562,192.42999267578125,189.27000427246094,192.19000244140625,192.19000244140625,539300
2021-07-01,193.8300018310547,197.99000549316406,191.80999755859375,197.3000030517578,197.3000030517578,616600
2021-07-02,197.1199951171875,197.80999755859375,194.5800018310547,195.0800018310547,195.0800018310547,555200
2021-07-06,196.39999389648438,198.2100067138672,191.22999572753906,193.7100067138672,193.7100067138672,659600
2021-07-07,192.75999450683594,199.0500030517578,192.75999450683594,197.8699951171875,197.8699951171875,473700
2021-07-08,192.6699981689453,196.02000427246094,189.8699951171875,193.14999389648438,193.14999389648438,421600
2021-07-09,197.32000732421875,200.97000122070312,196.63999938964844,198.9499969482422,198.9499969482422,473000
2021-07-12,195.92999267578125,199.50999450683594,194.77999877929688,198.75999450683594,198.75999450683594,424600
2021-07-13,196.88999938964844,197.2899932861328,193.58999633789062,194.47000122070312,194.47000122070312,403100
2021-07-14,195.67999267578125,196.83999633789062,192.1999969482422,194.32000732421875,194.32000732421875,388700
2021-07-15,192.0,193.2899932861328,188.13999938964844,190.7899932861328,190.7899932861328,475100
2021-07-16,191.0,192.19000244140625,185.4600067138672,186.16000366210938,186.16000366210938,493000
2021-07-19,181.58999633789062,181.75,176.5,180.6199951171875,180.6199951171875,596000
2021-07-20,180.75999450683594,187.33999633789062,178.72999572753906,186.52000427246094,186.52000427246094,515300
2021-07-21,191.14999389648438,195.42999267578125,189.0399932861328,192.63999938964844,192.63999938964844,361900
