Date,Open,High,Low,Close,Adj Close,Volume
2021-06-01,36.619998931884766,37.70000076293945,36.619998931884766,37.54999923706055,37.474998474121094,4018700
2021-06-02,37.849998474121094,37.900001525878906,36.689998626708984,37.29999923706055,37.29999923706055,3565300
2021-06-03,37.02000045776367,37.54999923706055,36.650001525878906,37.38999938964844,37.38999938964844,2488100
2021-06-04,37.310001373291016,37.880001068115234,35.36000061035156,36.040000915527344,36.040000915527344,9883900
2021-06-07,36.439998626708984,36.619998931884766,35.560001373291016,35.91999816894531,35.91999816894531,4046000
2021-06-08,35.63999938964844,36.029998779296875,34.9900016784668,35.779998779296875,35.779998779296875,3876100
2021-06-09,35.470001220703125,35.5,34.810001373291016,34.95000076293945,34.95000076293945,4292900
2021-06-10,35.439998626708984,35.689998626708984,34.40999984741211,34.439998626708984,34.439998626708984,4083600
2021-06-11,34.84000015258789,35.209999084472656,34.43000030517578,34.59000015258789,34.59000015258789,4472000
2021-06-14,34.5,34.77000045776367,33.040000915527344,33.130001068115234,33.130001068115234,5478000
2021-06-15,33.16999816894531,33.349998474121094,32.29999923706055,33.060001373291016,33.060001373291016,6313600
2021-06-16,32.939998626708984,32.939998626708984,32.13999938964844,32.650001525878906,32.650001525878906,6779800
2021-06-17,32.439998626708984,32.52000045776367,30.049999237060547,30.350000381469727,30.350000381469727,10005100
2021-06-18,29.850000381469727,30.479999542236328,29.600000381469727,29.920000076293945,29.920000076293945,10643400
2021-06-21,30.610000610351562,31.170000076293945,30.530000686645508,30.84000015258789,30.84000015258789,11143900
2021-06-22,31.139999389648438,31.56999969482422,30.649999618530273,31.079999923706055,31.079999923706055,6777900
2021-06-23,31.079999923706055,31.510000228881836,30.959999084472656,30.989999771118164,30.989999771118164,3592700
2021-06-24,31.299999237060547,31.639999389648438,30.770000457763672,31.229999542236328,31.229999542236328,6301900
2021-06-25,31.540000915527344,31.760000228881836,31.139999389648438,31.200000762939453,31.200000762939453,5043200
2021-06-28,31.190000534057617,31.200000762939453,30.110000610351562,30.43000030517578,30.43000030517578,4571800
2021-06-29,30.969999313354492,31.350000381469727,30.440000534057617,30.799999237060547,30.799999237060547,4343600
2021-06-30,30.809999465942383,31.920000076293945,30.6200008392334,31.90999984741211,31.90999984741211,6112100
2021-07-01,32.4900016784668,32.95000076293945,31.68000030517578,31.790000915527344,31.790000915527344,6087000
2021-07-02,31.790000915527344,31.8700008392334,31.06999969482422,31.440000534057617,31.440000534057617,2782400
2021-07-06,31.34000015258789,31.34000015258789,29.969999313354492,30.290000915527344,30.290000915527344,5624600
2021-07-07,30.260000228881836,30.81999969482422,29.770000457763672,30.559999465942383,30.559999465942383,4132200
2021-07-08,29.8700008392334,31.06999969482422,29.639999389648438,30.75,30.75,4370200
2021-07-09,31.290000915527344,32.04999923706055,31.110000610351562,31.790000915527344,31.790000915527344,3837600
2021-07-12,31.290000915527344,32.130001068115234,30.950000762939453,31.860000610351562,31.860000610351562,3116500
2021-07-13,31.989999771118164,32.150001525878906,31.1299991607666,31.290000915527344,31.290000915527344,2818900
2021-07-14,31.559999465942383,32.33000183105469,31.0,31.079999923706055,31.079999923706055,2839900
2021-07-15,30.889999389648438,31.399999618530273,30.270000457763672,30.530000686645508,30.530000686645508,2858100
2021-07-16,30.84000015258789,30.940000534057617,29.239999771118164,29.59000015258789,29.59000015258789,5277700
2021-07-19,28.709999084472656,28.959999084472656,28.260000228881836,28.790000915527344,28.790000915527344,4865600
2021-07-20,28.899999618530273,29.940000534057617,28.729999542236328,29.700000762939453,29.700000762939453,3720100
2021-07-21,30.049999237060547,30.690000534057617,30.049999237060547,30.450000762939453,30.450000762939453,3352900
