Date,Open,High,Low,Close,Adj Close,Volume
2021-06-01,206.22000122070312,206.5500030517578,203.19000244140625,205.13999938964844,204.4539794921875,548100
2021-06-02,208.6999969482422,210.66000366210938,206.3800048828125,207.58999633789062,206.89578247070312,701100
2021-06-03,206.8800048828125,210.5800018310547,206.17999267578125,209.85000610351562,209.14822387695312,1264100
2021-06-04,210.74000549316406,211.7100067138672,208.8300018310547,209.9499969482422,209.24789428710938,550100
2021-06-07,210.05999755859375,210.82000732421875,207.14999389648438,207.69000244140625,206.99545288085938,591000
2021-06-08,209.27000427246094,211.5,207.80999755859375,210.41000366210938,209.70635986328125,709900
2021-06-09,210.19000244140625,210.80999755859375,208.85000610351562,209.1199951171875,208.420654296875,513200
2021-06-10,209.39999389648438,212.75999450683594,209.3800048828125,212.5800018310547,211.8690948486328,417200
2021-06-11,213.7100067138672,213.7100067138672,210.22000122070312,212.30999755859375,211.59999084472656,469100
2021-06-14,211.22999572753906,212.3000030517578,209.44000244140625,211.39999389648438,211.39999389648438,403600
2021-06-15,212.0,212.1300048828125,210.32000732421875,210.94000244140625,210.94000244140625,413700
2021-06-16,211.33999633789062,211.33999633789062,208.13999938964844,209.6999969482422,209.6999969482422,806600
2021-06-17,209.47999572753906,213.64999389648438,209.3699951171875,210.8800048828125,210.8800048828125,967000
2021-06-18,209.9199981689453,210.52000427246094,206.7100067138672,207.02999877929688,207.02999877929688,1033700
2021-06-21,208.52999877929688,212.63999938964844,207.3000030517578,211.30999755859375,211.30999755859375,746300
2021-06-22,212.63999938964844,214.7899932861328,211.00999450683594,213.9499969482422,213.9499969482422,1404400
2021-06-23,213.36000061035156,214.49000549316406,212.02999877929688,213.32000732421875,213.32000732421875,602700
2021-06-24,215.0,215.11000061035156,213.0800018310547,214.55999755859375,214.55999755859375,540300
2021-06-25,214.61000061035156,216.1199951171875,214.57000732421875,215.6199951171875,215.6199951171875,1103300
2021-06-28,216.10000610351562,216.17999267578125,214.5,215.11000061035156,215.11000061035156,534200
2021-06-29,215.27000427246094,217.22000122070312,215.1999969482422,217.00999450683594,217.00999450683594,515800
2021-06-30,216.85000610351562,217.86000061035156,216.00999450683594,216.85000610351562,216.85000610351562,573900
2021-07-01,217.60000610351562,219.44000244140625,217.2899932861328,218.74000549316406,218.74000549316406,472000
2021-07-02,219.60000610351562,222.16000366210938,218.85000610351562,221.02000427246094,221.02000427246094,643100
2021-07-06,222.13999938964844,223.3800048828125,219.99000549316406,223.00999450683594,223.00999450683594,754900
2021-07-07,223.27999877929688,224.77999877929688,221.2100067138672,224.4499969482422,224.4499969482422,459300
2021-07-08,220.52999877929688,224.22999572753906,220.5,222.30999755859375,222.30999755859375,702200
2021-07-09,223.99000549316406,224.80999755859375,221.5800018310547,224.52000427246094,224.52000427246094,513100
2021-07-12,224.58999633789062,225.00999450683594,222.75999450683594,223.22999572753906,223.22999572753906,427400
2021-07-13,223.77999877929688,224.1999969482422,221.67999267578125,222.1999969482422,222.1999969482422,393000
2021-07-14,223.49000549316406,224.63999938964844,222.49000549316406,222.91000366210938,222.91000366210938,479900
2021-07-15,222.5800018310547,223.9499969482422,221.5,222.6300048828125,222.6300048828125,440800
2021-07-16,222.52000427246094,223.6300048828125,219.8000030517578,219.99000549316406,219.99000549316406,583100
2021-07-19,217.24000549316406,218.67999267578125,215.2899932861328,216.60000610351562,216.60000610351562,578600
2021-07-20,217.82000732421875,219.5399932861328,217.0800018310547,218.5800018310547,218.5800018310547,727600
2021-07-21,219.4199981689453,219.67999267578125,217.63999938964844,219.4199981689453,219.4199981689453,485900
