Date,Open,High,Low,Close,Adj Close,Volume
2021-06-01,73.5999984741211,74.2300033569336,73.08999633789062,73.94999694824219,73.39999389648438,5954300
2021-06-02,73.44999694824219,73.77999877929688,72.56999969482422,72.69999694824219,72.69999694824219,6222400
2021-06-03,71.2699966430664,71.37999725341797,70.41999816894531,71.05999755859375,71.05999755859375,7614800
2021-06-04,71.48999786376953,72.18000030517578,71.13999938964844,71.44999694824219,71.44999694824219,5032700
2021-06-07,70.93000030517578,71.72000122070312,70.5199966430664,71.51000213623047,71.51000213623047,4548500
2021-06-08,71.33000183105469,71.41999816894531,69.88999938964844,69.93000030517578,69.93000030517578,6739000
2021-06-09,70.0199966430664,70.76000213623047,69.9800033569336,69.98999786376953,69.98999786376953,4105900
2021-06-10,70.25,71.19999694824219,70.0199966430664,71.05999755859375,71.05999755859375,4872400
2021-06-11,70.91999816894531,71.0,69.91999816894531,70.30999755859375,70.30999755859375,4827200
2021-06-14,69.38999938964844,70.18000030517578,69.06999969482422,69.83000183105469,69.83000183105469,5654300
2021-06-15,69.94999694824219,70.12000274658203,68.75,69.08000183105469,69.08000183105469,4858700
2021-06-16,69.0,69.66999816894531,67.88999938964844,68.44999694824219,68.44999694824219,9296800
2021-06-17,66.81999969482422,67.05000305175781,63.400001525878906,63.66999816894531,63.66999816894531,20424800
2021-06-18,63.43000030517578,63.869998931884766,62.540000915527344,62.619998931884766,62.619998931884766,17015300
2021-06-21,63.2400016784668,63.75,62.29999923706055,63.43000030517578,63.43000030517578,10795500
2021-06-22,63.400001525878906,63.75,62.77000045776367,62.91999816894531,62.91999816894531,8930700
2021-06-23,63.45000076293945,63.880001068115234,62.619998931884766,62.65999984741211,62.65999984741211,5248000
2021-06-24,63.060001373291016,63.220001220703125,62.27000045776367,62.29999923706055,62.29999923706055,5388400
2021-06-25,62.939998626708984,63.11000061035156,62.54999923706055,62.68000030517578,62.68000030517578,6138700
2021-06-28,62.7400016784668,63.0099983215332,62.13999938964844,62.650001525878906,62.650001525878906,4491900
2021-06-29,61.849998474121094,62.849998474121094,61.630001068115234,62.58000183105469,62.58000183105469,5556300
2021-06-30,62.84000015258789,63.779998779296875,62.650001525878906,63.380001068115234,63.380001068115234,5639800
2021-07-01,64.0,64.06999969482422,62.7599983215332,62.86000061035156,62.86000061035156,5577300
2021-07-02,63.7599983215332,64.11000061035156,63.02000045776367,63.36000061035156,63.36000061035156,5303000
2021-07-06,64.37999725341797,64.41999816894531,63.20000076293945,63.88999938964844,63.88999938964844,5400400
2021-07-07,64.04000091552734,64.30999755859375,63.25,63.630001068115234,63.630001068115234,3987100
2021-07-08,63.880001068115234,64.29000091552734,62.2400016784668,62.7599983215332,62.7599983215332,5535000
2021-07-09,63.15999984741211,64.22000122070312,63.119998931884766,63.97999954223633,63.97999954223633,4700700
2021-07-12,63.56999969482422,64.12000274658203,62.9900016784668,63.189998626708984,63.189998626708984,4318300
2021-07-13,63.27000045776367,64.4000015258789,63.18000030517578,63.369998931884766,63.369998931884766,5091600
2021-07-14,64.08000183105469,64.70999908447266,63.290000915527344,63.36000061035156,63.36000061035156,4808600
2021-07-15,63.439998626708984,63.810001373291016,63.09000015258789,63.4900016784668,63.4900016784668,4386400
2021-07-16,63.220001220703125,63.220001220703125,61.369998931884766,61.72999954223633,61.72999954223633,6277600
2021-07-19,61.040000915527344,61.43000030517578,59.91999816894531,60.689998626708984,60.689998626708984,8059500
2021-07-20,61.0,61.880001068115234,60.0099983215332,60.439998626708984,60.439998626708984,5803700
2021-07-21,59.81999969482422,60.68000030517578,59.599998474121094,60.36000061035156,60.36000061035156,5866000
