Date,Open,High,Low,Close,Adj Close,Volume
2021-06-01,27.579999923706055,27.639999389648438,27.309999465942383,27.549999237060547,27.489999771118164,2954200
2021-06-02,27.549999237060547,27.6299991607666,27.329999923706055,27.3799991607666,27.3799991607666,5418300
2021-06-03,27.229999542236328,27.3799991607666,27.040000915527344,27.209999084472656,27.209999084472656,2537800
2021-06-04,27.260000228881836,27.3700008392334,26.809999465942383,27.030000686645508,27.030000686645508,4560400
2021-06-07,27.190000534057617,27.290000915527344,26.8700008392334,26.920000076293945,26.920000076293945,4762900
2021-06-08,26.81999969482422,27.040000915527344,26.520000457763672,27.030000686645508,27.030000686645508,1707500
2021-06-09,27.030000686645508,27.229999542236328,26.709999084472656,26.84000015258789,26.84000015258789,1734200
2021-06-10,26.31999969482422,26.489999771118164,25.549999237060547,25.579999923706055,25.579999923706055,2939500
2021-06-11,25.719999313354492,26.15999984741211,25.639999389648438,26.139999389648438,26.139999389648438,2989100
2021-06-14,26.139999389648438,26.290000915527344,25.600000381469727,25.690000534057617,25.690000534057617,3229300
2021-06-15,25.700000762939453,25.850000381469727,25.579999923706055,25.760000228881836,25.760000228881836,1742600
2021-06-16,25.68000030517578,25.760000228881836,25.06999969482422,25.299999237060547,25.299999237060547,4131600
2021-06-17,25.260000228881836,25.43000030517578,24.510000228881836,24.889999389648438,24.889999389648438,1943400
2021-06-18,24.489999771118164,24.829999923706055,24.440000534057617,24.450000762939453,24.450000762939453,3833000
2021-06-21,24.709999084472656,25.030000686645508,24.540000915527344,25.0,25.0,1699400
2021-06-22,24.84000015258789,24.8700008392334,24.479999542236328,24.81999969482422,24.81999969482422,1542800
2021-06-23,24.950000762939453,24.979999542236328,24.6299991607666,24.719999313354492,24.719999313354492,1228800
2021-06-24,24.799999237060547,25.020000457763672,24.65999984741211,24.959999084472656,24.959999084472656,4105100
2021-06-25,25.049999237060547,25.440000534057617,24.93000030517578,25.31999969482422,25.31999969482422,4682100
2021-06-28,25.260000228881836,25.280000686645508,24.360000610351562,24.610000610351562,24.610000610351562,2240400
2021-06-29,24.610000610351562,24.760000228881836,24.399999618530273,24.40999984741211,24.40999984741211,1567300
2021-06-30,24.309999465942383,24.690000534057617,24.309999465942383,24.670000076293945,24.670000076293945,1325000
2021-07-01,24.8700008392334,24.979999542236328,24.6200008392334,24.90999984741211,24.90999984741211,1478000
2021-07-02,24.950000762939453,25.0,24.690000534057617,24.739999771118164,24.739999771118164,947000
2021-07-06,24.649999618530273,24.760000228881836,23.989999771118164,24.299999237060547,24.299999237060547,2776100
2021-07-07,24.209999084472656,24.450000762939453,23.979999542236328,24.260000228881836,24.260000228881836,1083600
2021-07-08,23.81999969482422,24.030000686645508,23.420000076293945,23.790000915527344,23.790000915527344,2604200
2021-07-09,24.190000534057617,24.3799991607666,24.079999923706055,24.309999465942383,24.309999465942383,2127200
2021-07-12,24.229999542236328,24.31999969482422,23.979999542236328,24.299999237060547,24.299999237060547,1088600
2021-07-13,24.229999542236328,24.270000457763672,23.649999618530273,23.690000534057617,23.690000534057617,1401200
2021-07-14,23.770000457763672,24.1200008392334,23.690000534057617,24.010000228881836,24.010000228881836,2281800
2021-07-15,23.760000228881836,24.049999237060547,23.68000030517578,23.899999618530273,23.899999618530273,1846500
2021-07-16,24.030000686645508,24.15999984741211,23.700000762939453,23.760000228881836,23.760000228881836,1821300
2021-07-19,23.18000030517578,23.389999389648438,22.950000762939453,23.209999084472656,23.209999084472656,2777000
2021-07-20,23.299999237060547,24.149999618530273,23.229999542236328,24.110000610351562,24.110000610351562,2500600
2021-07-21,24.3700008392334,24.639999389648438,24.229999542236328,24.350000381469727,24.350000381469727,1951400
