Date,Open,High,Low,Close,Adj Close,Volume
2021-06-01,16.579999923706055,16.979999542236328,16.540000915527344,16.959999084472656,16.959999084472656,4692800
2021-06-02,17.040000915527344,17.799999237060547,16.760000228881836,17.440000534057617,17.440000534057617,4662600
2021-06-03,17.270000457763672,17.739999771118164,17.1200008392334,17.68000030517578,17.68000030517578,3672400
2021-06-04,17.780000686645508,17.829999923706055,17.170000076293945,17.65999984741211,17.65999984741211,4437900
2021-06-07,17.700000762939453,17.829999923706055,17.350000381469727,17.389999389648438,17.389999389648438,2853500
2021-06-08,17.200000762939453,17.649999618530273,16.950000762939453,17.530000686645508,17.530000686645508,6011200
2021-06-09,17.65999984741211,17.739999771118164,17.190000534057617,17.190000534057617,17.190000534057617,4028300
2021-06-10,17.579999923706055,17.649999618530273,16.700000762939453,16.90999984741211,16.90999984741211,3400200
2021-06-11,17.209999084472656,17.309999465942383,16.899999618530273,16.93000030517578,16.93000030517578,3086700
2021-06-14,17.06999969482422,17.25,16.700000762939453,16.809999465942383,16.809999465942383,3191700
2021-06-15,16.799999237060547,17.559999465942383,16.799999237060547,17.510000228881836,17.510000228881836,6177900
2021-06-16,17.420000076293945,17.65999984741211,17.040000915527344,17.209999084472656,17.209999084472656,3959000
2021-06-17,17.1200008392334,17.229999542236328,15.819999694824219,16.030000686645508,16.030000686645508,4340800
2021-06-18,15.680000305175781,15.9399995803833,15.449999809265137,15.609999656677246,15.609999656677246,6258100
2021-06-21,15.770000457763672,16.360000610351562,15.710000038146973,16.280000686645508,16.280000686645508,2804700
2021-06-22,16.139999389648438,16.350000381469727,15.899999618530273,16.260000228881836,16.260000228881836,3918100
2021-06-23,16.5,16.780000686645508,15.029999732971191,15.0600004196167,15.0600004196167,17572400
2021-06-24,15.0600004196167,15.430000305175781,14.979999542236328,15.359999656677246,15.359999656677246,7229700
2021-06-25,15.390000343322754,15.800000190734863,15.300000190734863,15.65999984741211,15.65999984741211,8160700
2021-06-28,15.579999923706055,15.680000305175781,14.630000114440918,14.720000267028809,14.720000267028809,5363000
2021-06-29,14.880000114440918,15.180000305175781,14.770000457763672,14.800000190734863,14.800000190734863,3174100
2021-06-30,14.869999885559082,15.5600004196167,14.869999885559082,15.319999694824219,15.319999694824219,6552500
2021-07-01,15.75,15.930000305175781,15.529999732971191,15.640000343322754,15.640000343322754,4568300
2021-07-02,15.470000267028809,15.600000381469727,15.1899995803833,15.520000457763672,15.520000457763672,2384000
2021-07-06,15.539999961853027,15.539999961853027,14.390000343322754,14.539999961853027,14.539999961853027,3640100
2021-07-07,14.4399995803833,14.75,14.050000190734863,14.260000228881836,14.260000228881836,3397700
2021-07-08,13.949999809265137,14.449999809265137,13.8100004196167,14.180000305175781,14.180000305175781,4784100
2021-07-09,14.9399995803833,15.109999656677246,14.510000228881836,15.029999732971191,15.029999732971191,4130000
2021-07-12,14.729999542236328,15.260000228881836,14.600000381469727,15.069999694824219,15.069999694824219,3359600
2021-07-13,14.90999984741211,15.199999809265137,14.720000267028809,14.90999984741211,14.90999984741211,3349000
2021-07-14,14.989999771118164,15.329999923706055,14.229999542236328,14.390000343322754,14.390000343322754,3634200
2021-07-15,14.239999771118164,14.449999809265137,13.800000190734863,13.859999656677246,13.859999656677246,4393400
2021-07-16,14.350000381469727,14.350000381469727,13.479999542236328,13.619999885559082,13.619999885559082,6658600
2021-07-19,13.319999694824219,13.449999809265137,12.949999809265137,13.239999771118164,13.239999771118164,5906000
2021-07-20,13.199999809265137,13.720000267028809,13.09000015258789,13.550000190734863,13.550000190734863,3980200
2021-07-21,13.920000076293945,14.239999771118164,13.819999694824219,14.020000457763672,14.020000457763672,4152200
