Date,Open,High,Low,Close,Adj Close,Volume
2021-06-01,162.6999969482422,163.88250732421875,159.03250122070312,162.64500427246094,162.6077423095703,47280400
2021-06-02,162.5225067138672,169.1875,162.35499572753906,167.78250122070312,167.7440643310547,59416800
2021-06-03,167.00750732421875,172.58999633789062,165.8300018310547,169.69749450683594,169.6586151123047,58000800
2021-06-04,171.125,176.61000061035156,170.9550018310547,175.78250122070312,175.7422332763672,61712000
2021-06-07,175.71249389648438,178.125,171.92750549316406,176.19000244140625,176.14962768554688,57575600
2021-06-08,175.2725067138672,176.21499633789062,172.50999450683594,174.57000732421875,174.53001403808594,32384800
2021-06-09,175.15750122070312,175.75,172.5574951171875,173.58250427246094,173.58250427246094,38165600
2021-06-10,173.5,174.9199981689453,171.75999450683594,174.25,174.25,28777200
2021-06-11,174.7949981689453,179.3925018310547,174.4375,178.25250244140625,178.25250244140625,41630800
2021-06-14,179.05999755859375,180.39500427246094,176.62750244140625,180.1875,180.1875,32137600
2021-06-15,179.14999389648438,180.16250610351562,177.27999877929688,177.88499450683594,177.88499450683594,24303200
2021-06-16,177.90750122070312,179.54750061035156,175.84500122070312,178.1024932861328,178.1024932861328,30712400
2021-06-17,177.7449951171875,188.35000610351562,177.5625,186.57249450683594,186.57249450683594,80965600
2021-06-18,187.83999633789062,193.75,185.83999633789062,186.3874969482422,186.3874969482422,96885600
2021-06-21,184.3524932861328,185.36500549316406,178.2274932861328,184.2725067138672,184.2725067138672,67238400
2021-06-22,184.71499633789062,189.6374969482422,183.86000061035156,188.86749267578125,188.86749267578125,58014400
2021-06-23,190.07749938964844,191.52749633789062,189.07749938964844,190.57249450683594,190.57249450683594,33235600
2021-06-24,192.27749633789062,194.1999969482422,190.88250732421875,192.05499267578125,192.05499267578125,32092400
2021-06-25,192.80499267578125,193.4550018310547,188.94500732421875,190.30999755859375,190.30999755859375,27836400
2021-06-28,193.6125030517578,200.78750610351562,193.19000244140625,199.85000610351562,199.85000610351562,49543600
2021-06-29,198.8249969482422,200.9875030517578,196.57000732421875,200.2675018310547,200.2675018310547,36763200
2021-06-30,199.99249267578125,201.625,198.6374969482422,200.02499389648438,200.02499389648438,32656800
2021-07-01,201.25,204.55999755859375,200.19000244140625,202.1199951171875,202.1199951171875,48013600
2021-07-02,204.40249633789062,205.05250549316406,202.87750244140625,204.8699951171875,204.8699951171875,34276400
2021-07-06,207.375,208.4199981689453,203.50250244140625,206.98500061035156,206.98500061035156,44670800
2021-07-07,208.53500366210938,208.75,203.32000732421875,203.71749877929688,203.71749877929688,41842800
2021-07-08,198.56500244140625,201.3300018310547,197.00750732421875,199.02749633789062,199.02749633789062,50330000
2021-07-09,199.625,200.80250549316406,197.54249572753906,200.50250244140625,200.50250244140625,29662400
2021-07-12,202.39999389648438,205.32749938964844,201.87750244140625,205.125,205.125,32198400
2021-07-13,204.0050048828125,204.6125030517578,201.13999938964844,202.5,202.5,29070800
2021-07-14,203.57749938964844,204.17750549316406,197.52749633789062,198.4149932861328,198.4149932861328,38010000
2021-07-15,198.11749267578125,198.47000122070312,188.5850067138672,189.66250610351562,189.66250610351562,55056400
2021-07-16,190.30499267578125,191.57000732421875,180.72999572753906,181.61000061035156,181.61000061035156,68822400
2021-07-19,179.15249633789062,190.4199981689453,178.65499877929688,187.79750061035156,187.79750061035156,74906000
2021-07-20,187.3000030517578,188.3800048828125,181.63999938964844,186.1199951171875,186.1199951171875,43468700
2021-07-21,188.82000732421875,195.27000427246094,187.4199981689453,194.10000610351562,194.10000610351562,37101700
