Date,Open,High,Low,Close,Adj Close,Volume
2021-06-01,4925.330078125,4925.330078125,4817.8798828125,4841.02001953125,4841.02001953125,11700
2021-06-02,4841.0,4841.0,4785.89990234375,4795.490234375,4795.490234375,13800
2021-06-03,4755.60986328125,4793.990234375,4696.1201171875,4747.06982421875,4747.06982421875,16600
2021-06-04,4785.0,4827.43017578125,4702.0,4810.0,4810.0,13400
2021-06-07,4824.4501953125,4824.4501953125,4760.91015625,4808.509765625,4808.509765625,13700
2021-06-08,4818.4501953125,4864.2001953125,4777.77978515625,4838.1298828125,4838.1298828125,14400
2021-06-09,4851.7998046875,4851.7998046875,4770.0,4792.9501953125,4792.9501953125,16200
2021-06-10,4787.7998046875,4787.7998046875,4596.97021484375,4602.93994140625,4602.93994140625,40900
2021-06-11,4625.0,4699.68017578125,4625.0,4669.7900390625,4669.7900390625,21700
2021-06-14,4654.0,4703.33984375,4621.33984375,4671.740234375,4671.740234375,29400
2021-06-15,4674.35009765625,4744.0,4653.02978515625,4711.47998046875,4711.47998046875,23600
2021-06-16,4718.919921875,4729.52001953125,4645.0,4656.080078125,4656.080078125,20600
2021-06-17,4650.0,4749.39990234375,4631.5,4697.5498046875,4697.5498046875,27500
2021-06-18,4676.18017578125,4799.3798828125,4670.2900390625,4785.14013671875,4785.14013671875,40100
2021-06-21,4780.6201171875,4826.97021484375,4737.919921875,4817.68994140625,4817.68994140625,18800
2021-06-22,4830.0,4847.0400390625,4800.0,4821.27001953125,4821.27001953125,17700
2021-06-23,4805.0,4816.14990234375,4712.0,4783.2900390625,4783.2900390625,19900
2021-06-24,4783.35009765625,4825.759765625,4728.0,4818.4501953125,4818.4501953125,21000
2021-06-25,4816.759765625,4899.0,4807.35009765625,4844.5,4844.5,66100
2021-06-28,4846.8798828125,4911.2998046875,4805.7001953125,4884.419921875,4884.419921875,28100
2021-06-29,4909.89990234375,4982.81005859375,4890.1201171875,4964.41015625,4964.41015625,25600
2021-06-30,4945.2001953125,5000.0,4932.39990234375,4973.2998046875,4973.2998046875,26700
2021-07-01,4962.31005859375,5123.0,4956.97998046875,5111.89013671875,5111.89013671875,20800
2021-07-02,5123.0,5123.0,5075.9599609375,5114.3798828125,5114.3798828125,12600
2021-07-06,5109.0,5197.18994140625,5016.27978515625,5185.8701171875,5185.8701171875,24000
2021-07-07,5179.72998046875,5263.16015625,5138.7900390625,5202.2099609375,5202.2099609375,16700
2021-07-08,5129.0,5140.52978515625,5039.330078125,5053.02001953125,5053.02001953125,16700
2021-07-09,5114.0,5161.77978515625,5050.0,5060.83984375,5060.83984375,15900
2021-07-12,5012.0,5047.47998046875,4941.2001953125,4961.669921875,4961.669921875,25300
2021-07-13,4933.4599609375,4945.66015625,4800.169921875,4820.2900390625,4820.2900390625,25100
2021-07-14,4836.0,4920.33984375,4813.16015625,4862.35009765625,4862.35009765625,16500
2021-07-15,4836.85986328125,4858.85009765625,4737.22998046875,4824.31005859375,4824.31005859375,20400
2021-07-16,4849.16015625,4915.27001953125,4799.58984375,4800.0,4800.0,15300
2021-07-19,4764.0,4854.2099609375,4751.0,4788.009765625,4788.009765625,22600
2021-07-20,4820.16015625,4910.97021484375,4790.22998046875,4900.27001953125,4900.27001953125,24300
2021-07-21,4901.490234375,5049.990234375,4800.0,4893.759765625,4893.759765625,23300
