Date,Open,High,Low,Close,Adj Close,Volume
2021-06-01,92.33000183105469,93.06999969482422,92.08000183105469,92.45999908447266,92.45999908447266,1096300
2021-06-02,93.05000305175781,93.05000305175781,91.94000244140625,92.29000091552734,92.29000091552734,1282900
2021-06-03,91.58999633789062,93.80000305175781,91.58000183105469,93.0199966430664,93.0199966430664,1598600
2021-06-04,93.23999786376953,95.36000061035156,93.05000305175781,94.93000030517578,94.93000030517578,1728200
2021-06-07,95.25,95.29000091552734,92.94999694824219,93.37000274658203,93.37000274658203,1302400
2021-06-08,93.55999755859375,93.75,92.70999908447266,93.4800033569336,93.4800033569336,1178900
2021-06-09,93.88999938964844,93.88999938964844,92.58000183105469,92.58999633789062,92.58999633789062,823100
2021-06-10,93.26000213623047,93.38999938964844,91.58999633789062,91.70999908447266,91.70999908447266,1322900
2021-06-11,92.2300033569336,92.54000091552734,91.5,92.37000274658203,92.37000274658203,1292300
2021-06-14,92.16000366210938,92.27999877929688,90.54000091552734,91.06999969482422,91.06999969482422,1603800
2021-06-15,92.01000213623047,92.36000061035156,91.02999877929688,92.33000183105469,92.33000183105469,1284900
2021-06-16,92.16000366210938,92.2300033569336,90.95999908447266,91.36000061035156,91.36000061035156,1371800
2021-06-17,91.1500015258789,91.66999816894531,88.70999908447266,89.58000183105469,89.58000183105469,1859700
2021-06-18,88.4800033569336,88.88999938964844,86.95999908447266,87.04000091552734,87.04000091552734,3158900
2021-06-21,87.58999633789062,88.58000183105469,87.36000061035156,87.4000015258789,87.4000015258789,1931700
2021-06-22,87.33999633789062,87.77999877929688,86.52999877929688,87.37000274658203,87.37000274658203,3334000
2021-06-23,88.56999969482422,88.56999969482422,86.80999755859375,87.73999786376953,87.73999786376953,2556000
2021-06-24,88.61000061035156,89.2300033569336,88.2699966430664,88.4800033569336,88.4800033569336,1723500
2021-06-25,88.79000091552734,89.56999969482422,88.4000015258789,88.9800033569336,88.9800033569336,2521800
2021-06-28,89.25,89.37000274658203,88.29000091552734,88.63999938964844,88.63999938964844,1460500
2021-06-29,89.05999755859375,89.3499984741211,87.63999938964844,88.16999816894531,88.16999816894531,1200300
2021-06-30,88.62999725341797,89.44000244140625,88.13999938964844,89.25,89.25,1507500
2021-07-01,89.5999984741211,90.08999633789062,88.66000366210938,88.79000091552734,88.79000091552734,1223800
2021-07-02,89.02999877929688,89.05000305175781,88.04000091552734,88.30000305175781,88.30000305175781,1498200
2021-07-06,88.0,88.12000274658203,85.01000213623047,86.75,86.75,1940700
2021-07-07,86.79000091552734,87.20999908447266,85.95999908447266,86.86000061035156,86.86000061035156,1591200
2021-07-08,86.08999633789062,86.76000213623047,85.4000015258789,85.66000366210938,85.66000366210938,1547500
2021-07-09,86.0199966430664,87.88999938964844,86.0199966430664,87.5,87.5,1315100
2021-07-12,87.16000366210938,88.69999694824219,86.30999755859375,88.30999755859375,88.30999755859375,1450700
2021-07-13,89.7300033569336,89.7300033569336,87.30999755859375,87.5999984741211,87.5999984741211,1233600
2021-07-14,87.5999984741211,87.94000244140625,87.08000183105469,87.75,87.75,1228500
2021-07-15,88.01000213623047,89.11000061035156,87.63999938964844,88.33999633789062,88.33999633789062,1835100
2021-07-16,88.16999816894531,89.08999633789062,87.48999786376953,87.61000061035156,87.61000061035156,1865900
2021-07-19,86.68000030517578,87.4000015258789,86.2300033569336,86.70999908447266,86.70999908447266,2599000
2021-07-20,86.86000061035156,88.87000274658203,86.54000091552734,88.08999633789062,88.08999633789062,1732800
2021-07-21,88.13999938964844,89.33000183105469,87.97000122070312,88.1500015258789,88.1500015258789,1289500
