Date,Open,High,Low,Close,Adj Close,Volume
2021-06-01,135.7899932861328,136.0,132.47999572753906,132.8800048828125,132.04949951171875,9993900
2021-06-02,133.0,133.6300048828125,132.52000427246094,133.4600067138672,132.62588500976562,8254100
2021-06-03,133.22999572753906,135.91000366210938,133.1999969482422,135.85000610351562,135.00094604492188,11249800
2021-06-04,135.6999969482422,136.6199951171875,135.39999389648438,135.9499969482422,135.10031127929688,6894400
2021-06-07,136.36000061035156,136.83999633789062,135.67999267578125,136.4199981689453,135.56736755371094,8418000
2021-06-08,136.67999267578125,136.75,134.75,134.83999633789062,133.9972381591797,6911500
2021-06-09,135.5500030517578,136.44000244140625,134.74000549316406,134.7899932861328,133.9475555419922,6200700
2021-06-10,135.02000427246094,136.35000610351562,134.6199951171875,135.7899932861328,134.94129943847656,6515500
2021-06-11,135.75,135.8699951171875,133.89999389648438,134.86000061035156,134.01712036132812,10641400
2021-06-14,134.97999572753906,135.02999877929688,133.9600067138672,134.91000366210938,134.0668182373047,6302000
2021-06-15,135.1999969482422,135.63999938964844,134.5500030517578,134.64999389648438,133.8084259033203,5543400
2021-06-16,135.17999267578125,135.5800018310547,132.64999389648438,132.77999877929688,131.9501190185547,8936400
2021-06-17,132.82000732421875,134.16000366210938,132.64999389648438,133.99000549316406,133.15255737304688,7875600
2021-06-18,133.33999633789062,133.35000610351562,131.94000244140625,132.02999877929688,131.20480346679688,13997600
2021-06-21,132.69000244140625,133.25999450683594,132.39999389648438,133.07000732421875,132.23831176757812,8014800
2021-06-22,133.0399932861328,134.02000427246094,132.8800048828125,133.1199951171875,132.28799438476562,6550900
2021-06-23,132.9499969482422,133.36000061035156,132.32000732421875,132.92999267578125,132.09918212890625,5796000
2021-06-24,132.9499969482422,133.30999755859375,132.6999969482422,133.02000427246094,132.18862915039062,6056700
2021-06-25,133.25999450683594,135.5399932861328,132.9499969482422,134.9199981689453,134.07675170898438,24504900
2021-06-28,134.89999389648438,136.16000366210938,134.75999450683594,135.32000732421875,134.47425842285156,6065400
2021-06-29,135.50999450683594,135.8300018310547,133.82000732421875,134.39999389648438,133.55999755859375,5792300
2021-06-30,134.5800018310547,135.2899932861328,134.2899932861328,134.92999267578125,134.086669921875,5776600
2021-07-01,135.42999267578125,136.13999938964844,134.9199981689453,135.24000549316406,134.39474487304688,5922300
2021-07-02,135.60000610351562,136.63999938964844,135.4199981689453,135.89999389648438,135.0506134033203,5572000
2021-07-06,135.52000427246094,136.3000030517578,135.36000061035156,135.97999572753906,135.13011169433594,6534400
2021-07-07,136.02999877929688,137.58999633789062,136.02999877929688,137.0,136.1437530517578,5532700
2021-07-08,136.99000549316406,137.39999389648438,135.88999938964844,136.97999572753906,136.12387084960938,7585200
2021-07-09,137.24000549316406,137.64999389648438,136.83999633789062,137.02999877929688,136.17355346679688,5948700
2021-07-12,136.89999389648438,137.47000122070312,136.42999267578125,137.13999938964844,136.28286743164062,6807300
2021-07-13,136.38999938964844,137.57000732421875,136.38999938964844,136.97000122070312,136.1139373779297,5603800
2021-07-14,137.00999450683594,138.22999572753906,136.3699951171875,137.97999572753906,137.11761474609375,5903600
2021-07-15,138.00999450683594,139.25999450683594,137.6999969482422,139.16000366210938,138.29025268554688,7357100
2021-07-16,139.3000030517578,140.77999877929688,139.11000061035156,140.50999450683594,139.63180541992188,9345300
2021-07-19,140.32000732421875,141.8699951171875,138.80999755859375,140.44000244140625,139.562255859375,9544100
2021-07-20,140.44000244140625,141.97999572753906,139.63999938964844,139.69000244140625,138.8169403076172,8136300
2021-07-21,139.9499969482422,140.1999969482422,138.99000549316406,139.1999969482422,138.32998657226562,6951000
