Date,Open,High,Low,Close,Adj Close,Volume
2021-06-01,312.3699951171875,314.6400146484375,310.3599853515625,313.25,313.25,666600
2021-06-02,314.1499938964844,314.57000732421875,309.7099914550781,310.4700012207031,310.4700012207031,561600
2021-06-03,308.9200134277344,311.1199951171875,306.0899963378906,309.25,309.25,512500
2021-06-04,309.2200012207031,310.67999267578125,306.510009765625,309.0400085449219,309.0400085449219,598800
2021-06-07,309.5899963378906,310.17999267578125,305.0299987792969,307.3800048828125,307.3800048828125,458000
2021-06-08,307.95001220703125,312.17999267578125,305.19000244140625,310.9800109863281,310.9800109863281,523700
2021-06-09,309.6300048828125,309.6300048828125,305.0,305.3999938964844,305.3999938964844,617100
2021-06-10,308.2099914550781,308.3900146484375,302.1300048828125,303.1600036621094,303.1600036621094,719600
2021-06-11,305.5400085449219,306.75,300.69000244140625,301.9800109863281,301.9800109863281,771400
2021-06-14,301.4599914550781,301.95001220703125,295.1400146484375,296.9100036621094,296.9100036621094,1119500
2021-06-15,298.1199951171875,298.2099914550781,294.0199890136719,295.8900146484375,295.8900146484375,1746100
2021-06-16,295.3399963378906,298.4800109863281,291.70001220703125,295.95001220703125,295.95001220703125,866400
2021-06-17,295.8699951171875,296.9800109863281,281.9800109863281,285.25,285.25,1239200
2021-06-18,280.94000244140625,285.80999755859375,280.5,280.989990234375,280.989990234375,1532800
2021-06-21,284.8900146484375,288.92999267578125,282.55999755859375,288.04998779296875,288.04998779296875,845900
2021-06-22,287.20001220703125,290.6499938964844,285.2300109863281,289.2900085449219,289.2900085449219,778300
2021-06-23,292.95001220703125,297.8900146484375,290.5799865722656,295.239990234375,295.239990234375,1295000
2021-06-24,296.42999267578125,299.7200012207031,294.760009765625,298.8699951171875,298.8699951171875,1111600
2021-06-25,300.3500061035156,303.80999755859375,299.8299865722656,301.739990234375,301.739990234375,1395900
2021-06-28,300.8500061035156,305.0,297.07000732421875,303.82000732421875,303.82000732421875,1160900
2021-06-29,306.2200012207031,307.8500061035156,302.42999267578125,302.6499938964844,302.6499938964844,982200
2021-06-30,301.1300048828125,307.6700134277344,301.1300048828125,307.1099853515625,307.1099853515625,957300
2021-07-01,309.7799987792969,310.0,306.0,307.0299987792969,307.0299987792969,996500
2021-07-02,307.4599914550781,309.75,305.8800048828125,308.2699890136719,308.2699890136719,709100
2021-07-06,306.82000732421875,307.3999938964844,301.5299987792969,303.9200134277344,303.9200134277344,1176100
2021-07-07,303.2900085449219,310.6199951171875,303.2900085449219,308.239990234375,308.239990234375,879400
2021-07-08,303.3399963378906,311.7699890136719,301.2099914550781,306.8800048828125,306.8800048828125,1155800
2021-07-09,311.3500061035156,313.6099853515625,310.3599853515625,311.57000732421875,311.57000732421875,649400
2021-07-12,309.0,313.5299987792969,308.6499938964844,313.3900146484375,313.3900146484375,889400
2021-07-13,313.3800048828125,313.6099853515625,309.260009765625,309.79998779296875,309.79998779296875,675600
2021-07-14,311.7300109863281,311.989990234375,304.739990234375,306.8299865722656,306.8299865722656,657600
2021-07-15,304.75,310.5299987792969,304.17999267578125,306.239990234375,306.239990234375,704500
2021-07-16,307.3999938964844,308.1199951171875,299.5,300.0,300.0,659000
2021-07-19,293.8599853515625,293.8599853515625,286.2300109863281,289.92999267578125,289.92999267578125,910700
2021-07-20,290.20001220703125,300.2900085449219,289.3599853515625,299.5299987792969,299.5299987792969,1061700
2021-07-21,302.0299987792969,307.04998779296875,300.5199890136719,305.17999267578125,305.17999267578125,603500
