Date,Open,High,Low,Close,Adj Close,Volume
2021-06-01,58.560001373291016,58.83000183105469,57.63999938964844,58.15999984741211,58.014183044433594,2522400
2021-06-02,58.15999984741211,58.61000061035156,56.79999923706055,57.36000061035156,57.216190338134766,3181600
2021-06-03,56.779998779296875,57.189998626708984,55.619998931884766,56.310001373291016,56.1688232421875,1999800
2021-06-04,56.7400016784668,57.0099983215332,55.7599983215332,56.95000076293945,56.807220458984375,2060100
2021-06-07,57.0,57.16999816894531,56.18000030517578,56.709999084472656,56.56781768798828,2006400
2021-06-08,56.970001220703125,57.2400016784668,56.560001373291016,56.959999084472656,56.81719207763672,1940800
2021-06-09,57.599998474121094,57.63999938964844,55.61000061035156,55.84000015258789,55.70000076293945,2925400
2021-06-10,55.5099983215332,55.77000045776367,53.65999984741211,53.9900016784668,53.9900016784668,4254800
2021-06-11,54.2599983215332,54.93000030517578,54.060001373291016,54.34000015258789,54.34000015258789,2608700
2021-06-14,54.150001525878906,54.77000045776367,53.09000015258789,53.529998779296875,53.529998779296875,3265700
2021-06-15,53.810001373291016,54.4900016784668,53.380001068115234,54.209999084472656,54.209999084472656,1988700
2021-06-16,54.08000183105469,54.279998779296875,53.06999969482422,53.119998931884766,53.119998931884766,2534200
2021-06-17,53.040000915527344,54.40999984741211,52.84000015258789,53.720001220703125,53.720001220703125,3266500
2021-06-18,53.130001068115234,54.65999984741211,52.9900016784668,53.66999816894531,53.66999816894531,5238700
2021-06-21,53.959999084472656,54.4900016784668,53.54999923706055,54.20000076293945,54.20000076293945,2075400
2021-06-22,54.31999969482422,54.59000015258789,53.75,54.38999938964844,54.38999938964844,2808000
2021-06-23,54.52000045776367,54.54999923706055,53.150001525878906,53.4900016784668,53.4900016784668,1755600
2021-06-24,53.4900016784668,53.86000061035156,52.720001220703125,53.41999816894531,53.41999816894531,3341900
2021-06-25,53.470001220703125,53.97999954223633,53.150001525878906,53.61000061035156,53.61000061035156,3957300
2021-06-28,53.970001220703125,54.66999816894531,53.400001525878906,54.470001220703125,54.470001220703125,3034700
2021-06-29,54.5099983215332,56.13999938964844,54.5099983215332,55.540000915527344,55.540000915527344,4589400
2021-06-30,54.099998474121094,55.18000030517578,54.099998474121094,54.56999969482422,54.56999969482422,4474000
2021-07-01,54.599998474121094,56.20000076293945,54.45000076293945,55.81999969482422,55.81999969482422,3119000
2021-07-02,56.11000061035156,56.13999938964844,54.959999084472656,55.2400016784668,55.2400016784668,2021500
2021-07-06,55.02000045776367,55.18000030517578,53.16999816894531,53.91999816894531,53.91999816894531,2638600
2021-07-07,54.22999954223633,55.70000076293945,54.06999969482422,55.11000061035156,55.11000061035156,3177800
2021-07-08,53.63999938964844,54.130001068115234,52.459999084472656,52.709999084472656,52.709999084472656,3393000
2021-07-09,53.2400016784668,53.880001068115234,52.810001373291016,53.22999954223633,53.22999954223633,1881500
2021-07-12,52.86000061035156,53.36000061035156,52.540000915527344,53.15999984741211,53.15999984741211,1705400
2021-07-13,52.849998474121094,52.869998931884766,51.33000183105469,51.66999816894531,51.66999816894531,2288100
2021-07-14,52.119998931884766,52.47999954223633,51.58000183105469,51.75,51.75,1570600
2021-07-15,51.400001525878906,52.08000183105469,50.970001220703125,51.54999923706055,51.54999923706055,1902500
2021-07-16,51.599998474121094,52.54999923706055,50.88999938964844,51.0,51.0,2125600
2021-07-19,50.09000015258789,51.36000061035156,50.0099983215332,50.91999816894531,50.91999816894531,2418600
2021-07-20,50.93000030517578,52.380001068115234,50.75,52.209999084472656,52.209999084472656,1846900
2021-07-21,52.43000030517578,53.25,52.279998779296875,52.849998474121094,52.849998474121094,1964600
