Date,Open,High,Low,Close,Adj Close,Volume
2021-06-01,69.87999725341797,70.75,69.58000183105469,70.45999908447266,70.25676727294922,818700
2021-06-02,70.70999908447266,70.76000213623047,69.94999694824219,70.68000030517578,70.47613525390625,1194300
2021-06-03,70.44000244140625,70.5199966430664,69.08999633789062,69.56999969482422,69.36933898925781,1040500
2021-06-04,68.0199966430664,69.52999877929688,67.0,69.5199966430664,69.3194808959961,1367900
2021-06-07,69.80000305175781,70.19999694824219,69.0,69.1500015258789,68.95055389404297,807900
2021-06-08,68.88999938964844,69.5999984741211,68.16000366210938,69.51000213623047,69.30950927734375,664500
2021-06-09,69.36000061035156,69.66000366210938,68.8499984741211,69.19999694824219,69.00040435791016,625100
2021-06-10,69.83000183105469,70.0999984741211,67.05999755859375,67.29000091552734,67.09591674804688,1820800
2021-06-11,67.77999877929688,67.83000183105469,66.41999816894531,67.4800033569336,67.28536987304688,1216400
2021-06-14,67.37000274658203,67.5999984741211,66.20999908447266,66.9000015258789,66.70703887939453,756600
2021-06-15,66.87999725341797,67.25,66.08000183105469,67.16999816894531,66.97625732421875,1175800
2021-06-16,66.95999908447266,67.4000015258789,66.29000091552734,66.69000244140625,66.49765014648438,1178100
2021-06-17,67.08000183105469,67.20999908447266,64.5,64.66000366210938,64.47350311279297,1148000
2021-06-18,63.5,64.66999816894531,62.22999954223633,63.90999984741211,63.72566223144531,1863100
2021-06-21,64.54000091552734,65.93000030517578,64.54000091552734,65.69999694824219,65.510498046875,680500
2021-06-22,66.0199966430664,66.44000244140625,65.45999908447266,65.9000015258789,65.70992279052734,812700
2021-06-23,65.9000015258789,66.87999725341797,65.5999984741211,66.36000061035156,66.16859436035156,1192500
2021-06-24,66.6500015258789,66.7699966430664,65.36000061035156,66.04000091552734,65.84951782226562,775400
2021-06-25,66.37000274658203,67.16000366210938,66.29000091552734,66.7300033569336,66.53752899169922,846600
2021-06-28,66.97000122070312,66.97000122070312,66.08999633789062,66.75,66.5574722290039,1383200
2021-06-29,67.16999816894531,67.47000122070312,66.48999786376953,66.79000091552734,66.59735870361328,722100
2021-06-30,66.6500015258789,67.5999984741211,66.6500015258789,67.48999786376953,67.29533386230469,668200
2021-07-01,68.16000366210938,68.41999816894531,67.69000244140625,68.0,67.80386352539062,771400
2021-07-02,67.95999908447266,68.25,67.70999908447266,68.01000213623047,67.81383514404297,603100
2021-07-06,68.0999984741211,68.0999984741211,66.7699966430664,67.44999694824219,67.25544738769531,918800
2021-07-07,67.12000274658203,69.41999816894531,67.12000274658203,69.30000305175781,69.1001205444336,844800
2021-07-08,68.29000091552734,69.1500015258789,67.62999725341797,68.2699966430664,68.07308197021484,1004900
2021-07-09,69.44999694824219,70.1500015258789,69.06999969482422,69.30000305175781,69.1001205444336,901800
2021-07-12,68.95999908447266,70.4800033569336,68.48999786376953,70.37999725341797,70.177001953125,751500
2021-07-13,70.37000274658203,71.0,69.62000274658203,69.87000274658203,69.66847229003906,820600
2021-07-14,70.08999633789062,70.70999908447266,69.66999816894531,70.33000183105469,70.12714385986328,944300
2021-07-15,69.97000122070312,70.86000061035156,69.54000091552734,70.16999816894531,69.96760559082031,820100
2021-07-16,70.33999633789062,70.7300033569336,68.86000061035156,69.08999633789062,68.89071655273438,850300
2021-07-19,67.94999694824219,68.0,66.66999816894531,67.61000061035156,67.41499328613281,1018400
2021-07-20,67.81999969482422,69.91999816894531,67.56999969482422,69.52999877929688,69.32945251464844,932600
2021-07-21,69.72000122070312,70.55999755859375,69.23999786376953,69.33999633789062,69.13999938964844,1623200
