Date,Open,High,Low,Close,Adj Close,Volume
2021-06-01,185.4499969482422,187.3800048828125,181.69000244140625,182.97999572753906,182.97999572753906,825500
2021-06-02,182.9199981689453,185.5800018310547,182.1199951171875,185.30999755859375,185.30999755859375,757600
2021-06-03,182.08999633789062,183.64999389648438,180.5800018310547,180.97000122070312,180.97000122070312,1159400
2021-06-04,182.6699981689453,186.31399536132812,182.4199981689453,184.75999450683594,184.75999450683594,1061100
2021-06-07,183.25,184.2100067138672,182.33999633789062,183.86000061035156,183.86000061035156,798800
2021-06-08,185.5500030517578,187.05999755859375,182.0,184.27000427246094,184.27000427246094,957400
2021-06-09,184.72000122070312,185.17999267578125,181.49000549316406,181.5500030517578,181.5500030517578,737400
2021-06-10,182.38999938964844,184.0800018310547,180.8000030517578,182.91000366210938,182.91000366210938,589500
2021-06-11,183.25,183.75,182.25,183.30999755859375,183.30999755859375,525300
2021-06-14,183.91000366210938,185.85000610351562,182.32000732421875,184.94000244140625,184.94000244140625,636600
2021-06-15,184.0,186.25999450683594,181.5800018310547,181.91000366210938,181.91000366210938,651900
2021-06-16,182.32000732421875,184.08999633789062,180.01499938964844,181.7100067138672,181.7100067138672,997800
2021-06-17,181.1199951171875,183.5,178.9600067138672,181.3300018310547,181.3300018310547,784800
2021-06-18,179.4499969482422,180.1649932861328,173.16000366210938,174.19000244140625,174.19000244140625,2088700
2021-06-21,174.42999267578125,178.97999572753906,174.2100067138672,176.24000549316406,176.24000549316406,781500
2021-06-22,175.8000030517578,178.125,174.9600067138672,176.25999450683594,176.25999450683594,929000
2021-06-23,177.0,179.41000366210938,176.6300048828125,177.8800048828125,177.8800048828125,669800
2021-06-24,179.5800018310547,184.3699951171875,179.5800018310547,182.88999938964844,182.88999938964844,896100
2021-06-25,184.47000122070312,186.58999633789062,182.80999755859375,183.35000610351562,183.35000610351562,1055900
2021-06-28,184.75,189.30999755859375,184.19000244140625,187.3300018310547,187.3300018310547,862200
2021-06-29,188.9600067138672,198.9499969482422,187.9219970703125,195.66000366210938,195.66000366210938,2063000
2021-06-30,195.5800018310547,195.99600219726562,193.3300018310547,195.64999389648438,195.64999389648438,902100
2021-07-01,196.38999938964844,196.38999938964844,192.2899932861328,193.17999267578125,193.17999267578125,887100
2021-07-02,195.0,197.32000732421875,193.33999633789062,195.6699981689453,195.6699981689453,724100
2021-07-06,195.80999755859375,197.0659942626953,192.44000244140625,194.3000030517578,194.3000030517578,911200
2021-07-07,196.0,196.0,188.78500366210938,192.0,192.0,848900
2021-07-08,187.02999877929688,191.4499969482422,185.3300018310547,189.44000244140625,189.44000244140625,838000
2021-07-09,190.0,193.33999633789062,187.85000610351562,192.94000244140625,192.94000244140625,814400
2021-07-12,193.22999572753906,194.1959991455078,191.69000244140625,193.6199951171875,193.6199951171875,870900
2021-07-13,193.52499389648438,193.64999389648438,190.72999572753906,192.7899932861328,192.7899932861328,678600
2021-07-14,197.13999938964844,199.55999755859375,192.17999267578125,192.4199981689453,192.4199981689453,895900
2021-07-15,193.2100067138672,193.46499633789062,189.1699981689453,190.9499969482422,190.9499969482422,598100
2021-07-16,191.25999450683594,193.13999938964844,187.5,187.67999267578125,187.67999267578125,945600
2021-07-19,185.0,187.22000122070312,182.5,187.1300048828125,187.1300048828125,734000
2021-07-20,187.07000732421875,191.08999633789062,185.6300048828125,189.6999969482422,189.6999969482422,631000
2021-07-21,190.0,194.11500549316406,190.0,194.07000732421875,194.07000732421875,742000
