Date,Open,High,Low,Close,Adj Close,Volume
2021-06-01,89.80999755859375,89.93000030517578,88.83999633789062,88.98999786376953,88.98999786376953,4302200
2021-06-02,89.25,89.25,88.44999694824219,88.62999725341797,88.62999725341797,4429100
2021-06-03,88.11000061035156,88.97000122070312,87.88999938964844,88.68000030517578,88.68000030517578,4083200
2021-06-04,88.6500015258789,89.23999786376953,88.55000305175781,89.0199966430664,89.0199966430664,4082800
2021-06-07,88.97000122070312,89.1500015258789,88.4800033569336,88.97000122070312,88.97000122070312,5693900
2021-06-08,89.19999694824219,89.77999877929688,88.76000213623047,89.44999694824219,89.44999694824219,4777000
2021-06-09,89.36000061035156,89.56999969482422,88.81999969482422,88.8499984741211,88.8499984741211,4594500
2021-06-10,89.80000305175781,89.9800033569336,88.16000366210938,88.25,88.25,4826300
2021-06-11,88.69999694824219,88.97000122070312,88.16999816894531,88.80999755859375,88.80999755859375,4082700
2021-06-14,88.72000122070312,89.19000244140625,88.25,88.72000122070312,88.72000122070312,5924900
2021-06-15,88.94999694824219,89.80000305175781,88.80000305175781,89.4000015258789,89.4000015258789,5336700
2021-06-16,89.2300033569336,89.43000030517578,87.94999694824219,88.43000030517578,88.43000030517578,8033800
2021-06-17,88.4800033569336,88.7300033569336,86.31999969482422,87.12999725341797,87.12999725341797,7480500
2021-06-18,85.9000015258789,86.7300033569336,85.62000274658203,85.91999816894531,85.91999816894531,10387200
2021-06-21,86.75,88.13999938964844,86.5199966430664,88.0,88.0,5097400
2021-06-22,87.68000030517578,88.05999755859375,86.86000061035156,87.37999725341797,87.37999725341797,4150100
2021-06-23,87.41999816894531,87.61000061035156,86.56999969482422,86.5999984741211,86.5999984741211,3524500
2021-06-24,87.18000030517578,87.18000030517578,86.26000213623047,86.8499984741211,86.8499984741211,5335200
2021-06-25,87.02999877929688,87.4000015258789,86.68000030517578,86.72000122070312,86.72000122070312,6611000
2021-06-28,86.38999938964844,86.4000015258789,84.76000213623047,85.11000061035156,85.11000061035156,5738300
2021-06-29,85.37999725341797,85.87000274658203,84.33999633789062,84.44000244140625,84.44000244140625,6496800
2021-06-30,84.33999633789062,85.66999816894531,84.13999938964844,85.30999755859375,85.30999755859375,4744500
2021-07-01,85.41999816894531,86.25,85.2699966430664,86.22000122070312,86.22000122070312,3903900
2021-07-02,86.5,87.0,85.83000183105469,86.69999694824219,86.69999694824219,4185400
2021-07-06,86.1500015258789,86.48999786376953,84.93000030517578,85.75,85.75,4140000
2021-07-07,85.16999816894531,86.04000091552734,84.81999969482422,85.83000183105469,85.83000183105469,4127200
2021-07-08,84.5999984741211,85.77999877929688,84.0199966430664,85.44000244140625,85.44000244140625,4665500
2021-07-09,86.5,86.75,86.0199966430664,86.37999725341797,86.37999725341797,4554000
2021-07-12,85.55999755859375,86.4000015258789,85.0199966430664,86.22000122070312,86.22000122070312,5464400
2021-07-13,86.16999816894531,86.23999786376953,85.26000213623047,85.33000183105469,85.33000183105469,4595000
2021-07-14,85.18000030517578,85.88999938964844,84.45999908447266,84.91000366210938,84.91000366210938,3665400
2021-07-15,84.08999633789062,85.52999877929688,83.94000244140625,84.9800033569336,84.9800033569336,3460800
2021-07-16,85.62000274658203,85.75,83.30000305175781,83.52999877929688,83.52999877929688,4023800
2021-07-19,81.80000305175781,81.95999908447266,79.72000122070312,81.05000305175781,81.05000305175781,9221300
2021-07-20,81.30000305175781,85.12999725341797,81.0199966430664,84.80000305175781,84.80000305175781,7935000
2021-07-21,85.2699966430664,86.95999908447266,85.05000305175781,86.58000183105469,86.58000183105469,5398300
