Date,Open,High,Low,Close,Adj Close,Volume
2021-06-01,591.5,596.8200073242188,586.7899780273438,590.0700073242188,590.0700073242188,266500
2021-06-02,589.9600219726562,591.8599853515625,584.969970703125,587.9400024414062,587.9400024414062,265400
2021-06-03,587.2899780273438,598.6400146484375,583.97998046875,589.2100219726562,589.2100219726562,251400
2021-06-04,588.719970703125,597.4500122070312,586.6099853515625,596.0599975585938,596.0599975585938,201300
2021-06-07,599.2999877929688,603.3900146484375,594.4099731445312,602.3800048828125,602.3800048828125,233700
2021-06-08,603.219970703125,608.8400268554688,594.260009765625,606.8300170898438,606.8300170898438,280800
2021-06-09,605.9199829101562,606.9400024414062,590.6599731445312,594.22998046875,594.22998046875,346300
2021-06-10,602.1099853515625,604.9500122070312,565.4000244140625,566.469970703125,566.469970703125,540100
2021-06-11,572.1500244140625,577.8400268554688,560.6699829101562,561.7899780273438,561.7899780273438,501500
2021-06-14,553.72998046875,559.239990234375,540.239990234375,545.739990234375,545.739990234375,634300
2021-06-15,546.4600219726562,552.1699829101562,542.0,550.22998046875,550.22998046875,368100
2021-06-16,549.2000122070312,569.1699829101562,540.72998046875,567.0599975585938,567.0599975585938,556600
2021-06-17,570.02001953125,573.97998046875,539.8699951171875,545.3800048828125,545.3800048828125,421300
2021-06-18,538.75,544.6099853515625,529.2999877929688,530.9600219726562,530.9600219726562,749300
2021-06-21,537.9099731445312,555.1500244140625,537.3300170898438,553.469970703125,553.469970703125,341000
2021-06-22,553.9400024414062,560.3900146484375,544.22998046875,556.22998046875,556.22998046875,267500
2021-06-23,557.6500244140625,563.9600219726562,553.1400146484375,560.1599731445312,560.1599731445312,231300
2021-06-24,564.5399780273438,566.280029296875,558.010009765625,561.0399780273438,561.0399780273438,432900
2021-06-25,567.4000244140625,568.1699829101562,561.0399780273438,564.7100219726562,564.7100219726562,427600
2021-06-28,565.010009765625,565.2999877929688,552.5499877929688,556.8800048828125,556.8800048828125,276000
2021-06-29,564.5499877929688,568.739990234375,553.8900146484375,556.8900146484375,556.8900146484375,170000
2021-06-30,551.8499755859375,561.52001953125,551.6300048828125,556.4299926757812,556.4299926757812,353600
2021-07-01,561.9099731445312,569.4299926757812,560.469970703125,564.8800048828125,564.8800048828125,544800
2021-07-02,565.0,568.0,555.6400146484375,565.2100219726562,565.2100219726562,338400
2021-07-06,563.0399780273438,563.8800048828125,542.4600219726562,550.010009765625,550.010009765625,1038700
2021-07-07,547.4000244140625,556.4600219726562,543.6699829101562,551.6400146484375,551.6400146484375,285600
2021-07-08,540.1400146484375,552.1300048828125,536.97998046875,544.8699951171875,544.8699951171875,358400
2021-07-09,552.0,576.6799926757812,550.7999877929688,575.239990234375,575.239990234375,436000
2021-07-12,574.3800048828125,597.3200073242188,570.4199829101562,593.6599731445312,593.6599731445312,487800
2021-07-13,588.02001953125,588.02001953125,572.3099975585938,578.8499755859375,578.8499755859375,278500
2021-07-14,582.2899780273438,590.0900268554688,569.4299926757812,580.22998046875,580.22998046875,384300
2021-07-15,574.3800048828125,591.3699951171875,569.4099731445312,580.72998046875,580.72998046875,389700
2021-07-16,580.7000122070312,581.989990234375,556.5700073242188,561.760009765625,561.760009765625,431900
2021-07-19,546.6099853515625,550.9299926757812,531.25,534.9500122070312,534.9500122070312,439300
2021-07-20,536.760009765625,565.760009765625,536.760009765625,561.6500244140625,561.6500244140625,354400
2021-07-21,568.969970703125,577.7000122070312,567.030029296875,574.0,574.0,247200
