Date,Open,High,Low,Close,Adj Close,Volume
2021-06-01,79.0,80.55000305175781,78.23999786376953,78.43000030517578,78.43000030517578,1414000
2021-06-02,78.41999816894531,79.04000091552734,77.75,78.43000030517578,78.43000030517578,1251200
2021-06-03,77.58999633789062,78.26000213623047,77.0,77.8499984741211,77.8499984741211,1167100
2021-06-04,78.12999725341797,80.06999969482422,78.05999755859375,79.81999969482422,79.81999969482422,1208800
2021-06-07,79.55999755859375,79.91000366210938,77.98999786376953,78.22000122070312,78.22000122070312,1291400
2021-06-08,78.88999938964844,79.06999969482422,77.80999755859375,78.37999725341797,78.37999725341797,1678200
2021-06-09,78.9000015258789,78.9000015258789,78.12000274658203,78.16000366210938,78.16000366210938,679300
2021-06-10,78.27999877929688,78.93000030517578,77.45999908447266,78.76000213623047,78.76000213623047,705900
2021-06-11,79.3499984741211,79.61000061035156,78.36000061035156,78.61000061035156,78.61000061035156,1071900
2021-06-14,78.94000244140625,79.31999969482422,77.94000244140625,78.79000091552734,78.79000091552734,1200000
2021-06-15,78.80999755859375,78.80999755859375,77.8499984741211,78.19000244140625,78.19000244140625,826700
2021-06-16,78.29000091552734,78.88999938964844,77.5199966430664,78.2699966430664,78.2699966430664,819400
2021-06-17,78.12000274658203,78.66999816894531,77.29000091552734,78.19999694824219,78.19999694824219,754100
2021-06-18,78.08999633789062,78.5999984741211,76.81999969482422,77.87000274658203,77.87000274658203,2859500
2021-06-21,78.05000305175781,79.47000122070312,77.29000091552734,78.95999908447266,78.95999908447266,1143400
2021-06-22,78.75,79.55000305175781,78.36000061035156,79.4000015258789,79.4000015258789,680300
2021-06-23,79.37999725341797,79.8499984741211,79.04000091552734,79.23999786376953,79.23999786376953,779800
2021-06-24,79.77999877929688,80.54000091552734,79.29000091552734,80.48999786376953,80.48999786376953,839600
2021-06-25,80.97000122070312,81.41999816894531,80.58000183105469,81.05000305175781,81.05000305175781,2549200
2021-06-28,81.3499984741211,81.66999816894531,80.91000366210938,81.66000366210938,81.66000366210938,786400
2021-06-29,81.87999725341797,83.0,81.69999694824219,82.7300033569336,82.7300033569336,966700
2021-06-30,82.69999694824219,82.87999725341797,81.52999877929688,81.83000183105469,81.83000183105469,952300
2021-07-01,81.80000305175781,82.47000122070312,81.61000061035156,82.44999694824219,82.44999694824219,669400
2021-07-02,82.98999786376953,82.98999786376953,82.13999938964844,82.56999969482422,82.56999969482422,569700
2021-07-06,82.54000091552734,82.80000305175781,82.18000030517578,82.7300033569336,82.7300033569336,1004300
2021-07-07,82.61000061035156,83.38999938964844,81.68000030517578,82.91000366210938,82.91000366210938,610100
2021-07-08,81.58999633789062,82.41999816894531,80.3499984741211,81.48999786376953,81.48999786376953,700400
2021-07-09,82.19999694824219,83.58000183105469,81.72000122070312,83.26000213623047,83.26000213623047,1002000
2021-07-12,83.55999755859375,84.22000122070312,83.31999969482422,84.05000305175781,84.05000305175781,742700
2021-07-13,84.05000305175781,84.22000122070312,82.55000305175781,82.66000366210938,82.66000366210938,650200
2021-07-14,83.25,83.83000183105469,81.94999694824219,82.4000015258789,82.4000015258789,517700
2021-07-15,81.95999908447266,82.23999786376953,80.33999633789062,80.94000244140625,80.94000244140625,650700
2021-07-16,81.33999633789062,81.58999633789062,79.0999984741211,79.22000122070312,79.22000122070312,876700
2021-07-19,77.94000244140625,79.06999969482422,77.7699966430664,78.70999908447266,78.70999908447266,955700
2021-07-20,79.05999755859375,81.43000030517578,78.69000244140625,80.69000244140625,80.69000244140625,940300
2021-07-21,81.12000274658203,82.44999694824219,80.95999908447266,82.44000244140625,82.44000244140625,657800
