Date,Open,High,Low,Close,Adj Close,Volume
2021-06-01,19.25,19.770000457763672,19.170000076293945,19.6299991607666,19.6299991607666,4758412
2021-06-02,19.770000457763672,19.81999969482422,19.350000381469727,19.549999237060547,19.549999237060547,6369535
2021-06-03,19.440000534057617,19.600000381469727,18.969999313354492,19.059999465942383,19.059999465942383,4445654
2021-06-04,19.139999389648438,19.34000015258789,18.53499984741211,19.020000457763672,19.020000457763672,4168776
2021-06-07,19.139999389648438,19.350000381469727,18.854999542236328,19.25,19.25,4458045
2021-06-08,19.329999923706055,19.450000762939453,19.075000762939453,19.309999465942383,19.309999465942383,1989846
2021-06-09,19.360000610351562,19.40999984741211,18.6200008392334,18.6200008392334,18.6200008392334,2462784
2021-06-10,18.739999771118164,18.760000228881836,18.229999542236328,18.239999771118164,18.239999771118164,5316750
2021-06-11,18.440000534057617,18.479999542236328,18.239999771118164,18.469999313354492,18.469999313354492,2705703
2021-06-14,18.450000762939453,18.538999557495117,17.799999237060547,17.940000534057617,17.940000534057617,3972790
2021-06-15,17.969999313354492,18.010000228881836,17.600000381469727,17.93000030517578,17.93000030517578,4454370
2021-06-16,17.84000015258789,18.045000076293945,17.649999618530273,18.010000228881836,18.010000228881836,3608518
2021-06-17,17.93000030517578,17.979999542236328,17.309999465942383,17.579999923706055,17.579999923706055,3363148
2021-06-18,17.299999237060547,17.459999084472656,16.950000762939453,17.31999969482422,17.31999969482422,5394005
2021-06-21,17.43000030517578,17.829999923706055,17.290000915527344,17.709999084472656,17.709999084472656,2145419
2021-06-22,17.700000762939453,17.920000076293945,17.40999984741211,17.81999969482422,17.81999969482422,1997531
2021-06-23,17.920000076293945,18.5,17.920000076293945,18.389999389648438,18.389999389648438,2687372
2021-06-24,18.479999542236328,18.760000228881836,18.295000076293945,18.6299991607666,18.6299991607666,2426996
2021-06-25,19.270000457763672,19.479799270629883,18.864999771118164,19.100000381469727,19.100000381469727,4481100
2021-06-28,19.18000030517578,19.18000030517578,18.3799991607666,18.530000686645508,18.530000686645508,4349277
2021-06-29,18.6200008392334,18.8700008392334,18.399999618530273,18.540000915527344,18.540000915527344,2571328
2021-06-30,18.540000915527344,18.575000762939453,18.309999465942383,18.56999969482422,18.56999969482422,2911795
2021-07-01,18.65999984741211,18.979999542236328,18.56999969482422,18.799999237060547,18.799999237060547,2179722
2021-07-02,18.81999969482422,18.860000610351562,18.520000457763672,18.729999542236328,18.729999542236328,1559845
2021-07-06,18.700000762939453,18.770000457763672,18.280000686645508,18.59000015258789,18.59000015258789,2037031
2021-07-07,18.520000457763672,18.704999923706055,18.06999969482422,18.309999465942383,18.309999465942383,6701115
2021-07-08,18.0,18.219999313354492,17.604999542236328,18.079999923706055,18.079999923706055,5460709
2021-07-09,18.350000381469727,18.844999313354492,18.31999969482422,18.81999969482422,18.81999969482422,2470002
2021-07-12,18.649999618530273,18.809999465942383,18.510000228881836,18.760000228881836,18.760000228881836,2713419
2021-07-13,18.649999618530273,18.799999237060547,18.209999084472656,18.290000915527344,18.290000915527344,2114691
2021-07-14,18.440000534057617,18.559999465942383,18.079999923706055,18.1299991607666,18.1299991607666,2219994
2021-07-15,18.06999969482422,18.18000030517578,17.56999969482422,17.780000686645508,17.780000686645508,2632884
2021-07-16,17.84000015258789,17.894500732421875,16.940000534057617,17.049999237060547,17.049999237060547,3801410
2021-07-19,16.6200008392334,16.959999084472656,16.420000076293945,16.729999542236328,16.729999542236328,3615645
2021-07-20,16.790000915527344,17.540000915527344,16.6200008392334,17.350000381469727,17.350000381469727,2365755
2021-07-21,17.530000686645508,18.010400772094727,17.530000686645508,17.729999542236328,17.729999542236328,2948338
