Date,Open,High,Low,Close,Adj Close,Volume
2021-06-01,81.52999877929688,82.94000244140625,81.5199966430664,82.18000030517578,82.18000030517578,3153600
2021-06-02,82.81999969482422,84.79000091552734,81.79000091552734,84.38999938964844,84.38999938964844,3441300
2021-06-03,83.91999816894531,84.94999694824219,83.1500015258789,83.31999969482422,83.31999969482422,3027300
2021-06-04,83.73999786376953,84.26000213623047,81.95999908447266,83.23999786376953,83.23999786376953,2980000
2021-06-07,83.1500015258789,84.0199966430664,82.41999816894531,82.69000244140625,82.69000244140625,2597400
2021-06-08,82.4000015258789,83.5199966430664,80.87000274658203,83.26000213623047,83.26000213623047,3197700
2021-06-09,83.61000061035156,84.13999938964844,81.9000015258789,81.93000030517578,81.93000030517578,3366300
2021-06-10,83.41999816894531,84.19999694824219,81.27999877929688,81.94000244140625,81.94000244140625,2903800
2021-06-11,82.54000091552734,82.86000061035156,81.23999786376953,81.29000091552734,81.29000091552734,2194200
2021-06-14,81.66000366210938,82.6500015258789,81.23999786376953,81.94999694824219,81.94999694824219,3042300
2021-06-15,82.61000061035156,83.7699966430664,81.55000305175781,82.30000305175781,82.30000305175781,2819300
2021-06-16,81.69999694824219,82.44000244140625,79.76000213623047,81.45999908447266,81.45999908447266,3326500
2021-06-17,81.13999938964844,81.75,77.6500015258789,78.58000183105469,78.58000183105469,3981300
2021-06-18,77.47000122070312,78.27999877929688,75.9000015258789,76.0199966430664,76.0199966430664,7077700
2021-06-21,76.75,80.06999969482422,76.58999633789062,79.9800033569336,79.9800033569336,3682300
2021-06-22,79.4800033569336,81.54000091552734,78.66999816894531,80.9800033569336,80.9800033569336,4484200
2021-06-23,82.0199966430664,83.0,80.72000122070312,80.8499984741211,80.8499984741211,4793200
2021-06-24,81.55999755859375,82.05000305175781,80.70999908447266,81.7300033569336,81.7300033569336,4225300
2021-06-25,81.88999938964844,82.58999633789062,80.7300033569336,82.08999633789062,82.08999633789062,9568400
2021-06-28,81.79000091552734,81.88999938964844,77.41000366210938,77.72000122070312,77.72000122070312,6461800
2021-06-29,78.22000122070312,78.5199966430664,76.8499984741211,76.91999816894531,76.91999816894531,5199300
2021-06-30,77.1500015258789,78.47000122070312,76.91999816894531,78.08000183105469,78.08000183105469,4259800
2021-07-01,79.5,79.77999877929688,77.55999755859375,77.80999755859375,77.80999755859375,4679200
2021-07-02,78.1500015258789,78.44999694824219,76.91000366210938,78.06999969482422,78.06999969482422,2980400
2021-07-06,77.7699966430664,77.91999816894531,74.62000274658203,74.69999694824219,74.69999694824219,5822200
2021-07-07,74.26000213623047,75.08999633789062,71.81999969482422,72.30999755859375,72.30999755859375,8220500
2021-07-08,70.9000015258789,71.76000213623047,69.56999969482422,70.26000213623047,70.26000213623047,5815300
2021-07-09,71.30000305175781,72.44000244140625,70.30000305175781,72.30000305175781,72.30000305175781,3531800
2021-07-12,71.08999633789062,72.7699966430664,70.62000274658203,71.68000030517578,71.68000030517578,2728300
2021-07-13,71.0,71.5199966430664,70.06999969482422,70.47000122070312,70.47000122070312,3394300
2021-07-14,70.41000366210938,71.23999786376953,67.36000061035156,67.66999816894531,67.66999816894531,5213700
2021-07-15,66.91000366210938,68.3499984741211,66.30000305175781,66.80000305175781,66.80000305175781,4787800
2021-07-16,66.94000244140625,67.19000244140625,64.37000274658203,64.87999725341797,64.87999725341797,4693000
2021-07-19,61.849998474121094,62.779998779296875,60.7599983215332,61.91999816894531,61.91999816894531,7318700
2021-07-20,62.029998779296875,63.540000915527344,60.9900016784668,62.56999969482422,62.56999969482422,5524700
2021-07-21,63.540000915527344,65.66999816894531,63.4900016784668,64.91000366210938,64.91000366210938,5126900
