Date,Open,High,Low,Close,Adj Close,Volume
2021-06-01,75.02999877929688,76.79000091552734,74.58999633789062,76.69999694824219,76.69999694824219,1687300
2021-06-02,77.0,77.91999816894531,76.41000366210938,77.81999969482422,77.81999969482422,2103300
2021-06-03,77.80000305175781,77.88999938964844,76.44000244140625,76.70999908447266,76.70999908447266,1644900
2021-06-04,76.91000366210938,76.91000366210938,75.5999984741211,76.44999694824219,76.44999694824219,1535100
2021-06-07,76.68000030517578,77.47000122070312,76.22000122070312,76.87000274658203,76.87000274658203,1266300
2021-06-08,77.33000183105469,78.80000305175781,77.0,78.1500015258789,78.1500015258789,2177000
2021-06-09,78.56999969482422,79.37000274658203,78.30999755859375,78.83999633789062,78.83999633789062,1563900
2021-06-10,78.81999969482422,79.41000366210938,78.19000244140625,79.13999938964844,79.13999938964844,2016000
2021-06-11,79.31999969482422,79.68000030517578,78.55999755859375,79.68000030517578,79.68000030517578,1253500
2021-06-14,80.20999908447266,81.36000061035156,79.7699966430664,81.20999908447266,81.20999908447266,1787500
2021-06-15,82.12999725341797,82.38999938964844,81.11000061035156,81.16000366210938,81.16000366210938,2742400
2021-06-16,81.04000091552734,82.25,80.66000366210938,80.80000305175781,80.80000305175781,2150100
2021-06-17,80.70999908447266,81.23999786376953,80.12999725341797,80.55000305175781,80.55000305175781,2149700
2021-06-18,80.44999694824219,80.5999984741211,78.4800033569336,78.51000213623047,78.51000213623047,5532200
2021-06-21,78.73999786376953,80.69999694824219,78.3499984741211,80.58000183105469,80.58000183105469,1818200
2021-06-22,81.06999969482422,83.18000030517578,80.93000030517578,82.22000122070312,82.22000122070312,3915900
2021-06-23,82.20999908447266,83.80999755859375,81.80000305175781,83.47000122070312,83.47000122070312,2698200
2021-06-24,83.6500015258789,83.83000183105469,82.29000091552734,83.45999908447266,83.45999908447266,2259400
2021-06-25,83.80000305175781,84.0199966430664,83.37000274658203,84.0199966430664,84.0199966430664,2230000
2021-06-28,84.0199966430664,84.0199966430664,82.33999633789062,82.95999908447266,82.95999908447266,2535700
2021-06-29,83.0,83.83000183105469,82.66999816894531,83.41000366210938,83.41000366210938,1657400
2021-06-30,83.58000183105469,84.2300033569336,82.72000122070312,83.0999984741211,83.0999984741211,4388000
2021-07-01,83.41000366210938,84.56999969482422,82.81999969482422,83.7300033569336,83.7300033569336,2249000
2021-07-02,84.0,84.97000122070312,83.7300033569336,84.91999816894531,84.91999816894531,2208800
2021-07-06,84.61000061035156,85.30000305175781,83.20999908447266,85.13999938964844,85.13999938964844,2390400
2021-07-07,84.94999694824219,85.2300033569336,83.95999908447266,84.87000274658203,84.87000274658203,2448900
2021-07-08,84.05000305175781,85.41999816894531,83.62000274658203,84.88999938964844,84.88999938964844,2435900
2021-07-09,85.38999938964844,86.48999786376953,84.91999816894531,86.43000030517578,86.43000030517578,1844900
2021-07-12,85.97000122070312,87.79000091552734,85.97000122070312,87.52999877929688,87.52999877929688,1806700
2021-07-13,87.55000305175781,87.95999908447266,86.38999938964844,86.97000122070312,86.97000122070312,2904000
2021-07-14,86.68000030517578,88.81999969482422,86.55999755859375,88.19999694824219,88.19999694824219,2672300
2021-07-15,87.91000366210938,88.69000244140625,87.66000366210938,88.5999984741211,88.5999984741211,2088200
2021-07-16,89.0999984741211,89.80000305175781,88.94000244140625,89.68000030517578,89.68000030517578,2041300
2021-07-19,88.48999786376953,88.48999786376953,84.0999984741211,84.43000030517578,84.43000030517578,3044300
2021-07-20,84.93000030517578,88.41999816894531,84.30999755859375,88.0199966430664,88.0199966430664,2259700
2021-07-21,88.0999984741211,89.41999816894531,87.76000213623047,87.98999786376953,87.98999786376953,1591600
