Date,Open,High,Low,Close,Adj Close,Volume
2021-04-19,57.02000045776367,58.77000045776367,55.63999938964844,56.68000030517578,56.68000030517578,15947400
2021-04-20,56.0,57.04999923706055,53.7599983215332,55.709999084472656,55.709999084472656,11987700
2021-04-21,55.4900016784668,58.83000183105469,54.88999938964844,58.779998779296875,58.779998779296875,12019600
2021-04-22,59.27000045776367,59.66899871826172,56.5099983215332,57.16999816894531,57.16999816894531,12904200
2021-04-23,57.25,58.45000076293945,57.2400016784668,58.119998931884766,58.119998931884766,10252500
2021-04-26,58.150001525878906,59.45899963378906,57.560001373291016,59.22999954223633,59.22999954223633,8011200
2021-04-27,60.84000015258789,62.27000045776367,58.880001068115234,59.130001068115234,59.130001068115234,13370400
2021-04-28,58.720001220703125,59.88999938964844,58.25,59.689998626708984,59.689998626708984,7501900
2021-04-29,59.81999969482422,59.9900016784668,56.220001220703125,57.459999084472656,57.459999084472656,15592800
2021-04-30,56.790000915527344,58.04999923706055,56.11000061035156,56.65999984741211,56.65999984741211,10668300
2021-05-03,57.83000183105469,58.31999969482422,56.529998779296875,57.08000183105469,57.08000183105469,15797700
2021-05-04,56.27000045776367,56.34000015258789,53.10300064086914,56.130001068115234,56.130001068115234,17944200
2021-05-05,56.047000885009766,57.61000061035156,55.83399963378906,56.18000030517578,56.18000030517578,11503500
2021-05-06,55.689998626708984,55.81999969482422,50.25,51.88999938964844,51.88999938964844,27353900
2021-05-07,53.45000076293945,53.5099983215332,48.15999984741211,48.41999816894531,48.41999816894531,46018800
2021-05-10,47.560001373291016,47.58000183105469,44.459999084472656,45.34000015258789,45.34000015258789,42216000
2021-05-11,42.65999984741211,45.61000061035156,42.220001220703125,44.0099983215332,44.0099983215332,29470600
2021-05-12,43.79999923706055,44.790000915527344,41.43600082397461,42.11000061035156,42.11000061035156,27985800
2021-05-13,42.9900016784668,43.95000076293945,39.93000030517578,40.9900016784668,40.9900016784668,23688300
2021-05-14,41.529998779296875,45.290000915527344,41.439998626708984,44.88999938964844,44.88999938964844,28429100
2021-05-17,43.720001220703125,43.90999984741211,42.551998138427734,43.5099983215332,43.5099983215332,17570400
2021-05-18,43.79499816894531,45.36000061035156,43.54999923706055,44.27000045776367,44.27000045776367,15122700
2021-05-19,42.332000732421875,43.52000045776367,41.810001373291016,43.439998626708984,43.439998626708984,17567000
2021-05-20,43.65599822998047,44.869998931884766,43.380001068115234,44.540000915527344,44.540000915527344,10758500
2021-05-21,45.14500045776367,46.119998931884766,44.40999984741211,44.630001068115234,44.630001068115234,15176000
2021-05-24,44.83399963378906,49.2599983215332,44.34000015258789,47.86000061035156,47.86000061035156,30740800
2021-05-25,49.16999816894531,49.97999954223633,47.279998779296875,48.41999816894531,48.41999816894531,24980800
2021-05-26,48.650001525878906,49.959999084472656,48.369998931884766,49.459999084472656,49.459999084472656,13963100
2021-05-27,49.18000030517578,50.61000061035156,48.52000045776367,50.400001525878906,50.400001525878906,11468800
2021-05-28,50.5099983215332,51.91999816894531,49.777000427246094,49.95000076293945,49.95000076293945,14662800
2021-06-01,50.20000076293945,50.380001068115234,48.619998931884766,49.56999969482422,49.56999969482422,10616000
2021-06-02,48.779998779296875,51.02000045776367,48.3129997253418,50.970001220703125,50.970001220703125,13385400
2021-06-03,49.810001373291016,50.75,49.220001220703125,49.709999084472656,49.709999084472656,8251300
2021-06-04,49.91999816894531,50.54499816894531,49.779998779296875,50.33000183105469,50.33000183105469,6462300
2021-06-07,50.40999984741211,53.650001525878906,50.31999969482422,53.5099983215332,53.5099983215332,14583900
2021-06-08,54.0,55.61000061035156,52.959999084472656,55.29999923706055,55.29999923706055,14881700
2021-06-09,55.689998626708984,56.0,53.65999984741211,54.47999954223633,54.47999954223633,11349500
2021-06-10,54.220001220703125,54.68000030517578,52.779998779296875,53.650001525878906,53.650001525878906,8555200
2021-06-11,53.709999084472656,54.68000030517578,53.02000045776367,53.13999938964844,53.13999938964844,7674700
2021-06-14,53.08000183105469,53.099998474121094,50.40999984741211,50.619998931884766,50.619998931884766,16388800
2021-06-15,44.94900131225586,49.04999923706055,44.650001525878906,48.5099983215332,48.5099983215332,88027800
2021-06-16,48.86000061035156,50.130001068115234,47.4900016784668,48.810001373291016,48.810001373291016,29916400
2021-06-17,48.05400085449219,49.939998626708984,48.029998779296875,49.20000076293945,49.20000076293945,13294600
2021-06-18,48.95000076293945,49.56999969482422,47.43299865722656,48.060001373291016,48.060001373291016,12194700
2021-06-21,47.849998474121094,49.25,47.02000045776367,49.0,49.0,8770600
2021-06-22,48.939998626708984,50.2599983215332,48.470001220703125,50.15999984741211,50.15999984741211,8543200
2021-06-23,50.560001373291016,51.16999816894531,50.06999969482422,50.529998779296875,50.529998779296875,11443400
2021-06-24,51.215999603271484,51.59000015258789,50.2599983215332,51.060001373291016,51.060001373291016,11042100
2021-06-25,51.183998107910156,52.31999969482422,50.91999816894531,51.66999816894531,51.66999816894531,30374500
2021-06-28,51.709999084472656,52.7599983215332,50.88999938964844,52.709999084472656,52.709999084472656,9044000
2021-06-29,52.900001525878906,52.95000076293945,51.459999084472656,52.029998779296875,52.029998779296875,7729100
2021-06-30,51.95000076293945,52.79999923706055,51.29999923706055,52.16999816894531,52.16999816894531,7633300
2021-07-01,52.27000045776367,53.38999938964844,51.029998779296875,51.79999923706055,51.79999923706055,8484300
2021-07-02,51.91999816894531,52.36000061035156,50.56999969482422,51.279998779296875,51.279998779296875,6020300
2021-07-06,51.150001525878906,51.935001373291016,50.77000045776367,51.4900016784668,51.4900016784668,5945100
2021-07-07,51.33000183105469,52.29999923706055,48.61000061035156,48.75,48.75,10149800
2021-07-08,46.36000061035156,48.7599983215332,46.220001220703125,48.2599983215332,48.2599983215332,7353300
2021-07-09,48.29999923706055,50.380001068115234,47.45000076293945,49.09000015258789,49.09000015258789,10050700
2021-07-12,49.198001861572266,49.59600067138672,48.13999938964844,49.15999984741211,49.15999984741211,5037000
2021-07-13,48.880001068115234,49.06999969482422,47.70000076293945,47.72999954223633,47.72999954223633,6463100
2021-07-14,48.06999969482422,48.07600021362305,44.52000045776367,44.849998474121094,44.849998474121094,13782000
2021-07-15,44.40399932861328,45.66999816894531,43.5099983215332,44.83000183105469,44.83000183105469,11560400
2021-07-16,44.97999954223633,45.060001373291016,43.29999923706055,43.790000915527344,43.790000915527344,13735000
2021-07-19,42.56999969482422,45.68000030517578,42.209999084472656,44.65999984741211,44.65999984741211,13045600
2021-07-20,44.762001037597656,46.119998931884766,43.84000015258789,45.81999969482422,45.81999969482422,8024800
2021-07-21,46.91999816894531,49.17900085449219,46.58000183105469,48.880001068115234,48.880001068115234,15419000
2021-07-22,48.900001525878906,49.310001373291016,48.130001068115234,49.2400016784668,49.2400016784668,6725300
2021-07-23,49.29399871826172,50.0099983215332,48.67499923706055,49.33000183105469,49.33000183105469,7026400
2021-07-26,49.18000030517578,49.86000061035156,48.229000091552734,49.220001220703125,49.220001220703125,6423700
2021-07-27,48.84000015258789,49.66999816894531,47.400001525878906,48.77000045776367,48.77000045776367,8092800
2021-07-28,48.97999954223633,50.900001525878906,48.900001525878906,50.650001525878906,50.650001525878906,9478100
