Date,Open,High,Low,Close,Adj Close,Volume
2021-04-19,148.82000732421875,151.42999267578125,147.3300018310547,147.9600067138672,147.9600067138672,622500
2021-04-20,148.0500030517578,149.0500030517578,145.02999877929688,146.07000732421875,146.07000732421875,703700
2021-04-21,146.10000610351562,148.63999938964844,144.8800048828125,144.99000549316406,144.99000549316406,870600
2021-04-22,146.14999389648438,149.2100067138672,145.125,145.49000549316406,145.49000549316406,1414300
2021-04-23,147.3000030517578,148.3800048828125,146.44000244140625,147.52000427246094,147.52000427246094,1206900
2021-04-26,148.94000244140625,153.52999877929688,147.30999755859375,153.52000427246094,153.52000427246094,1519400
2021-04-27,153.3000030517578,153.6999969482422,150.1199951171875,153.39999389648438,153.39999389648438,866100
2021-04-28,153.0,155.61000061035156,151.9149932861328,155.35000610351562,155.35000610351562,1164100
2021-04-29,155.6199951171875,155.6199951171875,146.27999877929688,149.52999877929688,149.52999877929688,1849400
2021-04-30,148.91000366210938,154.00999450683594,145.6199951171875,146.14999389648438,146.14999389648438,2576300
2021-05-03,147.38999938964844,147.5500030517578,141.77999877929688,144.08999633789062,144.08999633789062,1165400
2021-05-04,141.67999267578125,143.16000366210938,137.80999755859375,142.0,142.0,1534500
2021-05-05,143.63999938964844,144.85000610351562,137.05999755859375,138.38999938964844,138.38999938964844,1297700
2021-05-06,137.05999755859375,138.49000549316406,134.6999969482422,137.55999755859375,137.55999755859375,1346000
2021-05-07,140.82000732421875,141.6300048828125,135.6199951171875,135.6699981689453,135.6699981689453,1592500
2021-05-10,135.0800018310547,135.69000244140625,131.83999633789062,131.92999267578125,131.92999267578125,896300
2021-05-11,128.27999877929688,139.11000061035156,127.06999969482422,138.38999938964844,138.38999938964844,1741000
2021-05-12,136.0,137.13999938964844,132.33999633789062,132.7899932861328,132.7899932861328,1085600
2021-05-13,134.3300018310547,134.77999877929688,129.25999450683594,130.6699981689453,130.6699981689453,788500
2021-05-14,132.14999389648438,135.77000427246094,131.44000244140625,135.0399932861328,135.0399932861328,650700
2021-05-17,134.36000061035156,134.8800048828125,129.80999755859375,132.25,132.25,1207800
2021-05-18,133.14999389648438,135.9499969482422,132.25999450683594,133.80999755859375,133.80999755859375,763700
2021-05-19,130.27000427246094,133.49000549316406,130.00999450683594,133.35000610351562,133.35000610351562,500500
2021-05-20,134.6999969482422,137.32000732421875,134.1199951171875,136.22999572753906,136.22999572753906,664600
2021-05-21,137.67999267578125,137.97000122070312,135.0399932861328,135.36000061035156,135.36000061035156,560800
2021-05-24,137.0,138.47999572753906,135.66000366210938,136.9199981689453,136.9199981689453,355400
2021-05-25,137.72999572753906,138.3300018310547,136.44000244140625,137.07000732421875,137.07000732421875,473000
2021-05-26,138.36000061035156,139.44000244140625,136.05499267578125,136.4499969482422,136.4499969482422,939700
2021-05-27,137.83999633789062,138.8000030517578,134.60000610351562,137.0500030517578,137.0500030517578,1595200
2021-05-28,137.75,139.52000427246094,136.41000366210938,136.66000366210938,136.66000366210938,599500
2021-06-01,136.5,136.5399932861328,133.82000732421875,134.6199951171875,134.6199951171875,657900
2021-06-02,134.4600067138672,135.6300048828125,133.5,134.41000366210938,134.41000366210938,796700
2021-06-03,133.58999633789062,134.18499755859375,131.0,131.25999450683594,131.25999450683594,695300
2021-06-04,132.5800018310547,134.1199951171875,132.3699951171875,132.83999633789062,132.83999633789062,766700
2021-06-07,132.13999938964844,136.3000030517578,131.38999938964844,135.22000122070312,135.22000122070312,789700
2021-06-08,136.0,138.1999969482422,133.52999877929688,135.36000061035156,135.36000061035156,998000
2021-06-09,135.72999572753906,137.05499267578125,135.42999267578125,136.5,136.5,645700
2021-06-10,136.89999389648438,137.8000030517578,136.21499633789062,136.60000610351562,136.60000610351562,857600
2021-06-11,136.41000366210938,138.64999389648438,135.5800018310547,138.61000061035156,138.61000061035156,788300
2021-06-14,139.0,142.52000427246094,138.6199951171875,141.02000427246094,141.02000427246094,967300
2021-06-15,140.41000366210938,140.9499969482422,137.6300048828125,137.86000061035156,137.86000061035156,821300
2021-06-16,138.02000427246094,141.11000061035156,137.1300048828125,138.97000122070312,138.97000122070312,962300
2021-06-17,138.0,144.83999633789062,138.0,144.44000244140625,144.44000244140625,1088300
2021-06-18,144.60000610351562,146.75999450683594,143.4199981689453,145.92999267578125,145.92999267578125,1359500
2021-06-21,145.85000610351562,147.35000610351562,143.00399780273438,146.07000732421875,146.07000732421875,1017600
2021-06-22,145.94000244140625,146.88999938964844,144.33999633789062,144.77000427246094,144.77000427246094,730800
2021-06-23,144.85000610351562,147.19000244140625,144.7100067138672,146.3699951171875,146.3699951171875,611600
2021-06-24,147.55999755859375,149.35000610351562,146.72000122070312,147.75999450683594,147.75999450683594,683300
2021-06-25,147.75,148.4199981689453,145.67999267578125,146.63999938964844,146.63999938964844,1087300
2021-06-28,146.9499969482422,148.3000030517578,146.85000610351562,147.75999450683594,147.75999450683594,657100
2021-06-29,148.0,149.22000122070312,146.9499969482422,148.77999877929688,148.77999877929688,778600
2021-06-30,148.19000244140625,148.5,143.25999450683594,144.33999633789062,144.33999633789062,1090000
2021-07-01,143.36000061035156,144.34300231933594,141.50999450683594,142.8699951171875,142.8699951171875,1066800
2021-07-02,143.99000549316406,146.17999267578125,143.5800018310547,146.02000427246094,146.02000427246094,893800
2021-07-06,146.74000549316406,149.1999969482422,146.1999969482422,148.52000427246094,148.52000427246094,824500
2021-07-07,148.64999389648438,148.64999389648438,142.89999389648438,144.14999389648438,144.14999389648438,1277500
2021-07-08,141.44000244140625,143.05999755859375,139.00999450683594,141.83999633789062,141.83999633789062,995500
2021-07-09,141.3699951171875,143.5399932861328,140.25999450683594,143.47999572753906,143.47999572753906,554200
2021-07-12,143.83999633789062,145.3800048828125,140.27000427246094,140.6699981689453,140.6699981689453,557900
2021-07-13,140.5,141.44500732421875,137.4499969482422,138.58999633789062,138.58999633789062,1346200
2021-07-14,139.72999572753906,140.0,136.1999969482422,137.6199951171875,137.6199951171875,1138500
2021-07-15,137.72000122070312,138.3000030517578,134.55999755859375,135.88999938964844,135.88999938964844,968100
2021-07-16,137.16000366210938,138.74000549316406,136.10000610351562,136.36000061035156,136.36000061035156,926700
2021-07-19,135.0,135.66000366210938,132.6199951171875,135.02999877929688,135.02999877929688,1169900
2021-07-20,135.69000244140625,139.9600067138672,134.5800018310547,138.63999938964844,138.63999938964844,1063600
2021-07-21,138.72999572753906,140.39999389648438,138.0070037841797,140.38999938964844,140.38999938964844,748000
2021-07-22,141.07000732421875,143.27999877929688,140.75999450683594,143.0800018310547,143.0800018310547,958100
2021-07-23,144.1999969482422,147.14999389648438,143.32000732421875,146.89999389648438,146.89999389648438,1823500
2021-07-26,147.64999389648438,150.85000610351562,146.4600067138672,150.16000366210938,150.16000366210938,1672800
2021-07-27,150.0,150.5399932861328,145.97999572753906,148.5500030517578,148.5500030517578,1386000
2021-07-28,148.4499969482422,151.1999969482422,147.75,150.83999633789062,150.83999633789062,838200
